simulation/qsim/IDL_Integrador.msim.vcd
$comment
	File created using the following command:
		vcd file IDL_Integrador.msim.vcd -direction
$end
$date
	Mon Jul 28 15:16:10 2025
$end
$version
	ModelSim Version 10.1d
$end
$timescale
	1ps
$end
$scope module Incrementador_vlg_vec_tst $end
$var reg 1 ! ActivarConteo $end
$var reg 1 " b0 $end
$var reg 1 # b1 $end
$var reg 1 $ b2 $end
$var reg 1 % ClockIn $end
$var reg 1 & Data0 $end
$var reg 1 ' data1 $end
$var reg 1 ( data2 $end
$var reg 1 ) data3 $end
$var reg 1 * data4 $end
$var reg 1 + data5 $end
$var reg 1 , data6 $end
$var reg 1 - data7 $end
$var reg 1 . data8 $end
$var reg 1 / data9 $end
$var reg 1 0 data10 $end
$var reg 1 1 data11 $end
$var reg 1 2 ResetFFIn $end
$var reg 1 3 signob $end
$var wire 1 4 CarryFinal $end
$var wire 1 5 enableWrite $end
$var wire 1 6 ou0 $end
$var wire 1 7 ou1 $end
$var wire 1 8 ou2 $end
$var wire 1 9 ou3 $end
$var wire 1 : ou4 $end
$var wire 1 ; ou5 $end
$var wire 1 < ou6 $end
$var wire 1 = ou7 $end
$var wire 1 > ou8 $end
$var wire 1 ? ou9 $end
$var wire 1 @ ou10 $end
$var wire 1 A ou11 $end
$var wire 1 B selectSel $end
$var wire 1 C sampler $end
$scope module i1 $end
$var wire 1 D gnd $end
$var wire 1 E vcc $end
$var wire 1 F unknown $end
$var tri1 1 G devclrn $end
$var tri1 1 H devpor $end
$var tri1 1 I devoe $end
$var wire 1 J CarryFinal~output_o $end
$var wire 1 K ou0~output_o $end
$var wire 1 L ou1~output_o $end
$var wire 1 M ou2~output_o $end
$var wire 1 N ou3~output_o $end
$var wire 1 O ou4~output_o $end
$var wire 1 P ou5~output_o $end
$var wire 1 Q ou6~output_o $end
$var wire 1 R ou7~output_o $end
$var wire 1 S ou8~output_o $end
$var wire 1 T ou9~output_o $end
$var wire 1 U ou10~output_o $end
$var wire 1 V ou11~output_o $end
$var wire 1 W enableWrite~output_o $end
$var wire 1 X selectSel~output_o $end
$var wire 1 Y ClockIn~input_o $end
$var wire 1 Z ClockIn~inputclkctrl_outclk $end
$var wire 1 [ ActivarConteo~input_o $end
$var wire 1 \ inst2|inst2~0_combout $end
$var wire 1 ] ResetFFIn~input_o $end
$var wire 1 ^ ResetFFIn~inputclkctrl_outclk $end
$var wire 1 _ inst2|inst6~q $end
$var wire 1 ` inst2|inst1~combout $end
$var wire 1 a inst2|inst7~q $end
$var wire 1 b data11~input_o $end
$var wire 1 c signob~input_o $end
$var wire 1 d data10~input_o $end
$var wire 1 e inst2|inst8~combout $end
$var wire 1 f data7~input_o $end
$var wire 1 g data5~input_o $end
$var wire 1 h b2~input_o $end
$var wire 1 i data3~input_o $end
$var wire 1 j data2~input_o $end
$var wire 1 k b0~input_o $end
$var wire 1 l b1~input_o $end
$var wire 1 m Data0~input_o $end
$var wire 1 n inst3|LPM_MUX_component|auto_generated|result_node[0]~18_combout $end
$var wire 1 o inst2|inst9~0_combout $end
$var wire 1 p inst1|inst12~q $end
$var wire 1 q inst|inst1|inst3|inst10~0_combout $end
$var wire 1 r data1~input_o $end
$var wire 1 s inst3|LPM_MUX_component|auto_generated|result_node[1]~23_combout $end
$var wire 1 t inst1|inst13~q $end
$var wire 1 u inst|inst1|inst5~0_combout $end
$var wire 1 v inst|inst2|inst3|inst10~0_combout $end
$var wire 1 w inst3|LPM_MUX_component|auto_generated|result_node[2]~22_combout $end
$var wire 1 x inst1|inst11~q $end
$var wire 1 y inst|inst3|inst3|inst10~combout $end
$var wire 1 z inst3|LPM_MUX_component|auto_generated|result_node[3]~21_combout $end
$var wire 1 { inst1|inst10~q $end
$var wire 1 | inst|inst3|inst3|inst~combout $end
$var wire 1 } data4~input_o $end
$var wire 1 ~ inst3|LPM_MUX_component|auto_generated|result_node[4]~19_combout $end
$var wire 1 !! inst1|inst9~q $end
$var wire 1 "! inst|inst5|inst3|inst10~combout $end
$var wire 1 #! inst3|LPM_MUX_component|auto_generated|result_node[5]~25_combout $end
$var wire 1 $! inst1|inst8~q $end
$var wire 1 %! data6~input_o $end
$var wire 1 &! inst|inst6|inst3|inst10~combout $end
$var wire 1 '! inst3|LPM_MUX_component|auto_generated|result_node[6]~26_combout $end
$var wire 1 (! inst1|inst7~q $end
$var wire 1 )! inst|inst6|inst3|inst~combout $end
$var wire 1 *! inst3|LPM_MUX_component|auto_generated|result_node[7]~17_combout $end
$var wire 1 +! inst1|inst6~q $end
$var wire 1 ,! data8~input_o $end
$var wire 1 -! inst|inst8|inst3|inst10~combout $end
$var wire 1 .! inst3|LPM_MUX_component|auto_generated|result_node[8]~20_combout $end
$var wire 1 /! inst1|inst5~q $end
$var wire 1 0! data9~input_o $end
$var wire 1 1! inst|inst9|inst3|inst10~combout $end
$var wire 1 2! inst3|LPM_MUX_component|auto_generated|result_node[9]~24_combout $end
$var wire 1 3! inst1|inst4~q $end
$var wire 1 4! inst|inst9|inst3|inst~0_combout $end
$var wire 1 5! inst|inst9|inst3|inst~combout $end
$var wire 1 6! inst3|LPM_MUX_component|auto_generated|result_node[10]~16_combout $end
$var wire 1 7! inst1|inst3~q $end
$var wire 1 8! inst|inst11|inst3|inst10~combout $end
$var wire 1 9! inst3|LPM_MUX_component|auto_generated|result_node[11]~27_combout $end
$var wire 1 :! inst1|inst~q $end
$var wire 1 ;! inst|inst11|inst5~0_combout $end
$var wire 1 <! inst|inst|inst10~combout $end
$var wire 1 =! inst|inst4|inst3|inst10~combout $end
$var wire 1 >! inst|inst7|inst3|inst10~combout $end
$var wire 1 ?! inst|inst10|inst3|inst10~combout $end
$upscope $end
$upscope $end
$enddefinitions $end
#0
$dumpvars
1!
1"
1#
0$
0%
0&
1'
1(
1)
1*
0+
0,
0-
0.
0/
00
01
02
13
04
05
16
17
08
09
0:
0;
0<
0=
0>
0?
0@
1A
0B
xC
0D
1E
xF
1G
1H
1I
0J
1K
1L
0M
0N
0O
0P
0Q
0R
0S
0T
0U
1V
0W
0X
0Y
0Z
1[
0\
0]
0^
0_
1`
0a
0b
1c
0d
0e
0f
0g
0h
1i
1j
1k
1l
0m
0n
0o
0p
1q
1r
1s
0t
0u
0v
1w
0x
0y
1z
0{
0|
1}
1~
0!!
0"!
0#!
0$!
0%!
0&!
0'!
0(!
0)!
0*!
0+!
0,!
0-!
0.!
0/!
00!
01!
02!
03!
04!
05!
06!
07!
18!
09!
0:!
0;!
1<!
0=!
0>!
0?!
$end
#5000
1%
1Y
1Z
0C
#10000
12
0%
1]
0Y
1^
0Z
1C
#15000
1%
1Y
1Z
0C
1a
0`
1\
1o
1W
15
#20000
0%
0Y
0Z
1C
#25000
1%
1Y
1Z
0C
1!!
1{
1x
1t
0a
1_
1u
19!
0z
0w
1=!
1y
1v
0q
1e
1|
1z
1w
0s
1n
1O
1N
1M
0L
1X
1:
19
18
07
1B
0y
0v
0~
0z
0w
0N
0M
09
08
0=!
1"!
1#!
0O
1P
0:
1;
#30000
0%
0Y
0Z
1C
#35000
1%
1Y
1Z
0C
1:!
1$!
0!!
0{
0x
0t
1p
1~
0|
0n
1;!
08!
1=!
1v
0<!
0~
09!
1w
1J
0V
1O
1M
0K
14
0A
1:
18
06
0=!
0O
0:
#40000
0%
0Y
0Z
1C
#45000
1%
1Y
1Z
0C
0:!
1x
0p
0u
1n
0;!
18!
1y
0v
1<!
1q
19!
1z
0w
1s
0J
1V
1N
0M
1K
1L
04
1A
19
08
16
17
0y
1v
0z
1w
0N
1M
09
18
#50000
0%
0Y
0Z
1C
#55000
1%
1Y
1Z
0C
1:!
1t
1p
1u
0n
1;!
08!
0<!
09!
1J
0V
0K
14
0A
06
1y
0v
1z
0w
1N
0M
19
08
#60000
0%
0Y
0Z
1C
#65000
1%
1Y
1Z
0C
0:!
1{
0x
0p
1n
0;!
18!
1v
1<!
0q
19!
1w
0s
0J
1V
1M
1K
0L
04
1A
18
16
07
#70000
0%
0Y
0Z
1C
#75000
1%
1Y
1Z
0C
1:!
1x
0t
1p
1|
0n
1;!
08!
0y
0v
0<!
1~
09!
0z
0w
1J
0V
0N
0M
0K
14
0A
09
08
06
1=!
1O
1:
#80000
0%
0Y
0Z
1C
#85000
1%
1Y
1Z
0C
0:!
1!!
0{
0x
0p
0~
0|
0u
1n
0;!
18!
0=!
1&!
0"!
1v
1<!
1q
1~
19!
1'!
0#!
1w
1s
0J
1V
0O
1Q
0P
1M
1K
1L
04
1A
0:
1<
0;
18
16
17
1=!
0&!
1"!
0v
0'!
1#!
0w
1O
0Q
1P
0M
1:
0<
1;
08
#90000
0%
0Y
0Z
1C
#95000
1%
1Y
1Z
0C
1:!
1t
1p
1u
0n
1;!
08!
0<!
09!
1J
0V
0K
14
0A
06
1v
1w
1M
18
#100000
0%
0Y
0Z
1C
#105000
1%
1Y
1Z
0C
0:!
1x
0p
1n
0;!
18!
1y
0v
1<!
0q
19!
1z
0w
0s
0J
1V
1N
0M
1K
0L
04
1A
19
08
16
07
#110000
0%
0Y
0Z
1C
#115000
1%
1Y
1Z
0C
1:!
1{
0x
0t
1p
0n
1;!
08!
1v
0<!
09!
1w
1J
0V
1M
0K
14
0A
18
06
#120000
0%
0Y
0Z
1C
#125000
1%
1Y
1Z
0C
0:!
1x
0p
1|
0u
1n
0;!
18!
0y
0v
1<!
1q
0~
0|
19!
0z
0w
1s
0J
1V
0N
0M
1K
1L
04
1A
09
08
16
17
0=!
1&!
0"!
1y
1v
1~
1'!
0#!
1z
1w
0O
1Q
0P
1N
1M
0:
1<
0;
19
18
1=!
0&!
1"!
0'!
1#!
1O
0Q
1P
1:
0<
1;
#130000
0%
0Y
0Z
1C
#135000
1%
1Y
1Z
0C
1:!
1t
1p
1u
0n
1;!
08!
0<!
1|
09!
1J
0V
0K
14
0A
06
0y
0v
0~
0z
0w
0N
0M
09
08
0=!
1&!
0"!
1'!
0#!
0O
1Q
0P
0:
1<
0;
#140000
0%
0Y
0Z
1C
#145000
1%
1Y
1Z
0C
0:!
1(!
0$!
0!!
0{
0x
0p
1~
0|
1n
0;!
18!
1=!
1v
1<!
0q
0~
19!
1w
0s
0J
1V
1O
1M
1K
0L
04
1A
1:
18
16
07
0=!
0O
0:
#150000
0%
0Y
0Z
1C
#155000
1%
1Y
1Z
0C
1:!
1x
0t
1p
0n
1;!
08!
1y
0v
0<!
09!
1z
0w
1J
0V
1N
0M
0K
14
0A
19
08
06
#160000
0%
0Y
0Z
1C
#165000
1%
1Y
1Z
0C
0:!
1{
0x
0p
0u
1n
0;!
18!
1v
1<!
1q
19!
1w
1s
0J
1V
1M
1K
1L
04
1A
18
16
17
0v
0w
0M
08
#170000
0%
0Y
0Z
1C
#175000
1%
1Y
1Z
0C
1:!
1t
1p
1u
0n
1;!
08!
0<!
09!
1J
0V
0K
14
0A
06
1v
1w
1M
18
#180000
0%
0Y
0Z
1C
#185000
1%
1Y
1Z
0C
0:!
1x
0p
1|
1n
0;!
18!
0y
0v
1<!
0q
1~
19!
0z
0w
0s
0J
1V
0N
0M
1K
0L
04
1A
09
08
16
07
1=!
1O
1:
#190000
0%
0Y
0Z
1C
#195000
1%
1Y
1Z
0C
1:!
1!!
0{
0x
0t
1p
0~
0|
0n
1;!
08!
0=!
1"!
1v
0<!
1~
09!
1#!
1w
1J
0V
0O
1P
1M
0K
14
0A
0:
1;
18
06
1=!
0"!
0#!
1O
0P
1:
0;
#200000
0%
0Y
0Z
1C
#205000
1%
1Y
1Z
0C
0:!
1x
0p
0u
1n
0;!
18!
1y
0v
1<!
1q
19!
1z
0w
1s
0J
1V
1N
0M
1K
1L
04
1A
19
08
16
17
0y
1v
0z
1w
0N
1M
09
18
#210000
0%
0Y
0Z
1C
#215000
1%
1Y
1Z
0C
1:!
1t
1p
1u
0n
1;!
08!
0<!
09!
1J
0V
0K
14
0A
06
1y
0v
1z
0w
1N
0M
19
08
#220000
0%
0Y
0Z
1C
#225000
1%
1Y
1Z
0C
0:!
1{
0x
0p
1n
0;!
18!
1v
1<!
0q
19!
1w
0s
0J
1V
1M
1K
0L
04
1A
18
16
07
#230000
0%
0Y
0Z
1C
#235000
1%
1Y
1Z
0C
1:!
1x
0t
1p
1|
0n
1;!
08!
0y
0v
0<!
0~
09!
0z
0w
1J
0V
0N
0M
0K
14
0A
09
08
06
0=!
1"!
1#!
0O
1P
0:
1;
#240000
0%
0Y
0Z
1C
#245000
1%
1Y
1Z
0C
0:!
1$!
0!!
0{
0x
0p
1~
0|
0u
1n
0;!
18!
1=!
1v
1<!
1q
0~
19!
1w
1s
0J
1V
1O
1M
1K
1L
04
1A
1:
18
16
17
0=!
0v
0w
0O
0M
0:
08
#250000
0%
0Y
0Z
1C
#255000
1%
1Y
1Z
0C
1:!
1t
1p
1u
0n
1;!
08!
0<!
09!
1J
0V
0K
14
0A
06
1v
1w
1M
18
#260000
0%
0Y
0Z
1C
#265000
1%
1Y
1Z
0C
0:!
1x
0p
1n
0;!
18!
1y
0v
1<!
0q
19!
1z
0w
0s
0J
1V
1N
0M
1K
0L
04
1A
19
08
16
07
#270000
0%
0Y
0Z
1C
#275000
1%
1Y
1Z
0C
1:!
1{
0x
0t
1p
0n
1;!
08!
1v
0<!
09!
1w
1J
0V
1M
0K
14
0A
18
06
#280000
0%
0Y
0Z
1C
#285000
1%
1Y
1Z
0C
0:!
1x
0p
1|
0u
1n
0;!
18!
0y
0v
1<!
1q
1~
0|
19!
0z
0w
1s
0J
1V
0N
0M
1K
1L
04
1A
09
08
16
17
1=!
1y
1v
0~
1z
1w
1O
1N
1M
1:
19
18
0=!
0O
0:
#290000
0%
0Y
0Z
1C
#295000
1%
1Y
1Z
0C
1:!
1t
1p
1u
0n
1;!
08!
0<!
1|
09!
1J
0V
0K
14
0A
06
0y
0v
1~
0z
0w
0N
0M
09
08
1=!
1O
1:
#300000
0%
0Y
0Z
1C
#305000
1%
1Y
1Z
0C
0:!
1!!
0{
0x
0p
1)!
0~
0|
1n
0;!
18!
0=!
0&!
0"!
1v
1<!
0q
1*!
0)!
1~
19!
0'!
0#!
1w
0s
0J
1V
0O
0Q
0P
1M
1K
0L
04
1A
0:
0<
0;
18
16
07
1>!
1=!
1&!
1"!
0*!
1'!
1#!
1R
1O
1Q
1P
1=
1:
1<
1;
0>!
0R
0=
#310000
0%
0Y
0Z
1C
#315000
1%
1Y
1Z
0C
1:!
1x
0t
1p
0n
1;!
08!
1y
0v
0<!
09!
1z
0w
1J
0V
1N
0M
0K
14
0A
19
08
06
#320000
0%
0Y
0Z
1C
#325000
1%
1Y
1Z
0C
0:!
1{
0x
0p
0u
1n
0;!
18!
1v
1<!
1q
19!
1w
1s
0J
1V
1M
1K
1L
04
1A
18
16
17
0v
0w
0M
08
#330000
0%
0Y
0Z
1C
#335000
1%
1Y
1Z
0C
1:!
1t
1p
1u
0n
1;!
08!
0<!
09!
1J
0V
0K
14
0A
06
1v
1w
1M
18
#340000
0%
0Y
0Z
1C
#345000
1%
1Y
1Z
0C
0:!
1x
0p
1|
1n
0;!
18!
0y
0v
1<!
0q
1)!
0~
19!
0z
0w
0s
0J
1V
0N
0M
1K
0L
04
1A
09
08
16
07
0=!
0&!
0"!
1*!
0'!
0#!
0O
0Q
0P
0:
0<
0;
1>!
1R
1=
#350000
0%
0Y
0Z
1C
#355000
1%
1Y
1Z
0C
1:!
1+!
0(!
0$!
0!!
0{
0x
0t
1p
0*!
0)!
1~
0|
0n
1;!
08!
0>!
1-!
1=!
1v
0<!
1*!
0~
09!
1.!
1w
1J
0V
0R
1S
1O
1M
0K
14
0A
0=
1>
1:
18
06
1>!
0-!
0=!
0.!
1R
0S
0O
1=
0>
0:
#360000
0%
0Y
0Z
1C
#365000
1%
1Y
1Z
0C
0:!
1x
0p
0u
1n
0;!
18!
1y
0v
1<!
1q
19!
1z
0w
1s
0J
1V
1N
0M
1K
1L
04
1A
19
08
16
17
0y
1v
0z
1w
0N
1M
09
18
#370000
0%
0Y
0Z
1C
#375000
1%
1Y
1Z
0C
1:!
1t
1p
1u
0n
1;!
08!
0<!
09!
1J
0V
0K
14
0A
06
1y
0v
1z
0w
1N
0M
19
08
#380000
0%
0Y
0Z
1C
#385000
1%
1Y
1Z
0C
0:!
1{
0x
0p
1n
0;!
18!
1v
1<!
0q
19!
1w
0s
0J
1V
1M
1K
0L
04
1A
18
16
07
#390000
0%
0Y
0Z
1C
#395000
1%
1Y
1Z
0C
1:!
1x
0t
1p
1|
0n
1;!
08!
0y
0v
0<!
1~
09!
0z
0w
1J
0V
0N
0M
0K
14
0A
09
08
06
1=!
1O
1:
#400000
0%
0Y
0Z
1C
#405000
1%
1Y
1Z
0C
0:!
1!!
0{
0x
0p
0~
0|
0u
1n
0;!
18!
0=!
1"!
1v
1<!
1q
1~
19!
1#!
1w
1s
0J
1V
0O
1P
1M
1K
1L
04
1A
0:
1;
18
16
17
1=!
0"!
0v
0#!
0w
1O
0P
0M
1:
0;
08
#410000
0%
0Y
0Z
1C
#415000
1%
1Y
1Z
0C
1:!
1t
1p
1u
0n
1;!
08!
0<!
09!
1J
0V
0K
14
0A
06
1v
1w
1M
18
#420000
0%
0Y
0Z
1C
#425000
1%
1Y
1Z
0C
0:!
1x
0p
1n
0;!
18!
1y
0v
1<!
0q
19!
1z
0w
0s
0J
1V
1N
0M
1K
0L
04
1A
19
08
16
07
#430000
0%
0Y
0Z
1C
#435000
1%
1Y
1Z
0C
1:!
1{
0x
0t
1p
0n
1;!
08!
1v
0<!
09!
1w
1J
0V
1M
0K
14
0A
18
06
#440000
0%
0Y
0Z
1C
#445000
1%
1Y
1Z
0C
0:!
1x
0p
1|
0u
1n
0;!
18!
0y
0v
1<!
1q
0~
0|
19!
0z
0w
1s
0J
1V
0N
0M
1K
1L
04
1A
09
08
16
17
0=!
1"!
1y
1v
1~
1#!
1z
1w
0O
1P
1N
1M
0:
1;
19
18
1=!
0"!
0#!
1O
0P
1:
0;
#450000
0%
0Y
0Z
1C
#455000
1%
1Y
1Z
0C
1:!
1t
1p
1u
0n
1;!
08!
0<!
1|
09!
1J
0V
0K
14
0A
06
0y
0v
0~
0z
0w
0N
0M
09
08
0=!
1"!
1#!
0O
1P
0:
1;
#460000
0%
0Y
0Z
1C
#465000
1%
1Y
1Z
0C
0:!
1$!
0!!
0{
0x
0p
1~
0|
1n
0;!
18!
1=!
1v
1<!
0q
0~
19!
1w
0s
0J
1V
1O
1M
1K
0L
04
1A
1:
18
16
07
0=!
0O
0:
#470000
0%
0Y
0Z
1C
#475000
1%
1Y
1Z
0C
1:!
1x
0t
1p
0n
1;!
08!
1y
0v
0<!
09!
1z
0w
1J
0V
1N
0M
0K
14
0A
19
08
06
#480000
0%
0Y
0Z
1C
#485000
1%
1Y
1Z
0C
0:!
1{
0x
0p
0u
1n
0;!
18!
1v
1<!
1q
19!
1w
1s
0J
1V
1M
1K
1L
04
1A
18
16
17
0v
0w
0M
08
#490000
0%
0Y
0Z
1C
#495000
1%
1Y
1Z
0C
1:!
1t
1p
1u
0n
1;!
08!
0<!
09!
1J
0V
0K
14
0A
06
1v
1w
1M
18
#500000
0%
0Y
0Z
1C
#505000
1%
1Y
1Z
0C
0:!
1x
0p
1|
1n
0;!
18!
0y
0v
1<!
0q
1~
19!
0z
0w
0s
0J
1V
0N
0M
1K
0L
04
1A
09
08
16
07
1=!
1O
1:
#510000
0%
0Y
0Z
1C
#515000
1%
1Y
1Z
0C
1:!
1!!
0{
0x
0t
1p
0~
0|
0n
1;!
08!
0=!
1&!
0"!
1v
0<!
1~
09!
1'!
0#!
1w
1J
0V
0O
1Q
0P
1M
0K
14
0A
0:
1<
0;
18
06
1=!
0&!
1"!
0'!
1#!
1O
0Q
1P
1:
0<
1;
#520000
0%
0Y
0Z
1C
#525000
1%
1Y
1Z
0C
0:!
1x
0p
0u
1n
0;!
18!
1y
0v
1<!
1q
19!
1z
0w
1s
0J
1V
1N
0M
1K
1L
04
1A
19
08
16
17
0y
1v
0z
1w
0N
1M
09
18
#530000
0%
0Y
0Z
1C
#535000
1%
1Y
1Z
0C
1:!
1t
1p
1u
0n
1;!
08!
0<!
09!
1J
0V
0K
14
0A
06
1y
0v
1z
0w
1N
0M
19
08
#540000
0%
0Y
0Z
1C
#545000
1%
1Y
1Z
0C
0:!
1{
0x
0p
1n
0;!
18!
1v
1<!
0q
19!
1w
0s
0J
1V
1M
1K
0L
04
1A
18
16
07
#550000
0%
0Y
0Z
1C
#555000
1%
1Y
1Z
0C
1:!
1x
0t
1p
1|
0n
1;!
08!
0y
0v
0<!
0~
09!
0z
0w
1J
0V
0N
0M
0K
14
0A
09
08
06
0=!
1&!
0"!
1'!
0#!
0O
1Q
0P
0:
1<
0;
#560000
0%
0Y
0Z
1C
#565000
1%
1Y
1Z
0C
0:!
1(!
0$!
0!!
0{
0x
0p
1~
0|
0u
1n
0;!
18!
1=!
1v
1<!
1q
0~
19!
1w
1s
0J
1V
1O
1M
1K
1L
04
1A
1:
18
16
17
0=!
0v
0w
0O
0M
0:
08
#570000
0%
0Y
0Z
1C
#575000
1%
1Y
1Z
0C
1:!
1t
1p
1u
0n
1;!
08!
0<!
09!
1J
0V
0K
14
0A
06
1v
1w
1M
18
#580000
0%
0Y
0Z
1C
#585000
1%
1Y
1Z
0C
0:!
1x
0p
1n
0;!
18!
1y
0v
1<!
0q
19!
1z
0w
0s
0J
1V
1N
0M
1K
0L
04
1A
19
08
16
07
#590000
0%
0Y
0Z
1C
#595000
1%
1Y
1Z
0C
1:!
1{
0x
0t
1p
0n
1;!
08!
1v
0<!
09!
1w
1J
0V
1M
0K
14
0A
18
06
#600000
0%
0Y
0Z
1C
#605000
1%
1Y
1Z
0C
0:!
1x
0p
1|
0u
1n
0;!
18!
0y
0v
1<!
1q
1~
0|
19!
0z
0w
1s
0J
1V
0N
0M
1K
1L
04
1A
09
08
16
17
1=!
1y
1v
0~
1z
1w
1O
1N
1M
1:
19
18
0=!
0O
0:
#610000
0%
0Y
0Z
1C
#615000
1%
1Y
1Z
0C
1:!
1t
1p
1u
0n
1;!
08!
0<!
1|
09!
1J
0V
0K
14
0A
06
0y
0v
1~
0z
0w
0N
0M
09
08
1=!
1O
1:
#620000
0%
0Y
0Z
1C
#625000
1%
1Y
1Z
0C
0:!
1!!
0{
0x
0p
0~
0|
1n
0;!
18!
0=!
1"!
1v
1<!
0q
1~
19!
1#!
1w
0s
0J
1V
0O
1P
1M
1K
0L
04
1A
0:
1;
18
16
07
1=!
0"!
0#!
1O
0P
1:
0;
#630000
0%
0Y
0Z
1C
#635000
1%
1Y
1Z
0C
1:!
1x
0t
1p
0n
1;!
08!
1y
0v
0<!
09!
1z
0w
1J
0V
1N
0M
0K
14
0A
19
08
06
#640000
0%
0Y
0Z
1C
#645000
1%
1Y
1Z
0C
0:!
1{
0x
0p
0u
1n
0;!
18!
1v
1<!
1q
19!
1w
1s
0J
1V
1M
1K
1L
04
1A
18
16
17
0v
0w
0M
08
#650000
0%
0Y
0Z
1C
#655000
1%
1Y
1Z
0C
1:!
1t
1p
1u
0n
1;!
08!
0<!
09!
1J
0V
0K
14
0A
06
1v
1w
1M
18
#660000
0%
0Y
0Z
1C
#665000
1%
1Y
1Z
0C
0:!
1x
0p
1|
1n
0;!
18!
0y
0v
1<!
0q
0~
19!
0z
0w
0s
0J
1V
0N
0M
1K
0L
04
1A
09
08
16
07
0=!
1"!
1#!
0O
1P
0:
1;
#670000
0%
0Y
0Z
1C
#675000
1%
1Y
1Z
0C
1:!
1$!
0!!
0{
0x
0t
1p
1~
0|
0n
1;!
08!
1=!
1v
0<!
0~
09!
1w
1J
0V
1O
1M
0K
14
0A
1:
18
06
0=!
0O
0:
#680000
0%
0Y
0Z
1C
#685000
1%
1Y
1Z
0C
0:!
1x
0p
0u
1n
0;!
18!
1y
0v
1<!
1q
19!
1z
0w
1s
0J
1V
1N
0M
1K
1L
04
1A
19
08
16
17
0y
1v
0z
1w
0N
1M
09
18
#690000
0%
0Y
0Z
1C
#695000
1%
1Y
1Z
0C
1:!
1t
1p
1u
0n
1;!
08!
0<!
09!
1J
0V
0K
14
0A
06
1y
0v
1z
0w
1N
0M
19
08
#700000
0%
0Y
0Z
1C
#705000
1%
1Y
1Z
0C
0:!
1{
0x
0p
1n
0;!
18!
1v
1<!
0q
19!
1w
0s
0J
1V
1M
1K
0L
04
1A
18
16
07
#710000
0%
0Y
0Z
1C
#715000
1%
1Y
1Z
0C
1:!
1x
0t
1p
1|
0n
1;!
08!
0y
0v
0<!
1~
09!
0z
0w
1J
0V
0N
0M
0K
14
0A
09
08
06
1=!
1O
1:
#720000
0%
0Y
0Z
1C
#725000
1%
1Y
1Z
0C
0:!
1!!
0{
0x
0p
1)!
0~
0|
0u
1n
0;!
18!
0=!
0&!
0"!
1v
1<!
1q
0*!
0)!
1~
19!
0'!
0#!
1w
1s
0J
1V
0O
0Q
0P
1M
1K
1L
04
1A
0:
0<
0;
18
16
17
0>!
1-!
1=!
1&!
1"!
0v
1*!
1.!
1'!
1#!
0w
0R
1S
1O
1Q
1P
0M
0=
1>
1:
1<
1;
08
1>!
0-!
0.!
1R
0S
1=
0>
#730000
0%
0Y
0Z
1C
#735000
1%
1Y
1Z
0C
1:!
1t
1p
1u
0n
1;!
08!
0<!
09!
1J
0V
0K
14
0A
06
1v
1w
1M
18
#740000
0%
0Y
0Z
1C
#745000
1%
1Y
1Z
0C
0:!
1x
0p
1n
0;!
18!
1y
0v
1<!
0q
19!
1z
0w
0s
0J
1V
1N
0M
1K
0L
04
1A
19
08
16
07
#750000
0%
0Y
0Z
1C
#755000
1%
1Y
1Z
0C
1:!
1{
0x
0t
1p
0n
1;!
08!
1v
0<!
09!
1w
1J
0V
1M
0K
14
0A
18
06
#760000
0%
0Y
0Z
1C
#765000
1%
1Y
1Z
0C
0:!
1x
0p
1|
0u
1n
0;!
18!
0y
0v
1<!
1q
1)!
0~
0|
19!
0z
0w
1s
0J
1V
0N
0M
1K
1L
04
1A
09
08
16
17
0=!
0&!
0"!
1y
1v
0*!
0)!
1~
0'!
0#!
1z
1w
0O
0Q
0P
1N
1M
0:
0<
0;
19
18
0>!
1-!
1=!
1&!
1"!
1*!
1.!
1'!
1#!
0R
1S
1O
1Q
1P
0=
1>
1:
1<
1;
1>!
0-!
0.!
1R
0S
1=
0>
#770000
0%
0Y
0Z
1C
#775000
1%
1Y
1Z
0C
1:!
1t
1p
1u
0n
1;!
08!
0<!
1|
09!
1J
0V
0K
14
0A
06
0y
0v
1)!
0~
0z
0w
0N
0M
09
08
0=!
0&!
0"!
0*!
0'!
0#!
0O
0Q
0P
0:
0<
0;
0>!
1-!
1.!
0R
1S
0=
1>
#780000
0%
0Y
0Z
1C
#785000
1%
1Y
1Z
0C
0:!
1/!
0+!
0(!
0$!
0!!
0{
0x
0p
1*!
0)!
1~
0|
1n
0;!
18!
1>!
1=!
1v
1<!
0q
0*!
0~
19!
1w
0s
0J
1V
1R
1O
1M
1K
0L
04
1A
1=
1:
18
16
07
0>!
0=!
0R
0O
0=
0:
#790000
0%
0Y
0Z
1C
#795000
1%
1Y
1Z
0C
1:!
1x
0t
1p
0n
1;!
08!
1y
0v
0<!
09!
1z
0w
1J
0V
1N
0M
0K
14
0A
19
08
06
#800000
0%
0Y
0Z
1C
#805000
1%
1Y
1Z
0C
0:!
1{
0x
0p
0u
1n
0;!
18!
1v
1<!
1q
19!
1w
1s
0J
1V
1M
1K
1L
04
1A
18
16
17
0v
0w
0M
08
#810000
0%
0Y
0Z
1C
#815000
1%
1Y
1Z
0C
1:!
1t
1p
1u
0n
1;!
08!
0<!
09!
1J
0V
0K
14
0A
06
1v
1w
1M
18
#820000
0%
0Y
0Z
1C
#825000
1%
1Y
1Z
0C
0:!
1x
0p
1|
1n
0;!
18!
0y
0v
1<!
0q
1~
19!
0z
0w
0s
0J
1V
0N
0M
1K
0L
04
1A
09
08
16
07
1=!
1O
1:
#830000
0%
0Y
0Z
1C
#835000
1%
1Y
1Z
0C
1:!
1!!
0{
0x
0t
1p
0~
0|
0n
1;!
08!
0=!
1"!
1v
0<!
1~
09!
1#!
1w
1J
0V
0O
1P
1M
0K
14
0A
0:
1;
18
06
1=!
0"!
0#!
1O
0P
1:
0;
#840000
0%
0Y
0Z
1C
#845000
1%
1Y
1Z
0C
0:!
1x
0p
0u
1n
0;!
18!
1y
0v
1<!
1q
19!
1z
0w
1s
0J
1V
1N
0M
1K
1L
04
1A
19
08
16
17
0y
1v
0z
1w
0N
1M
09
18
#850000
0%
0Y
0Z
1C
#855000
1%
1Y
1Z
0C
1:!
1t
1p
1u
0n
1;!
08!
0<!
09!
1J
0V
0K
14
0A
06
1y
0v
1z
0w
1N
0M
19
08
#860000
0%
0Y
0Z
1C
#865000
1%
1Y
1Z
0C
0:!
1{
0x
0p
1n
0;!
18!
1v
1<!
0q
19!
1w
0s
0J
1V
1M
1K
0L
04
1A
18
16
07
#870000
0%
0Y
0Z
1C
#875000
1%
1Y
1Z
0C
1:!
1x
0t
1p
1|
0n
1;!
08!
0y
0v
0<!
0~
09!
0z
0w
1J
0V
0N
0M
0K
14
0A
09
08
06
0=!
1"!
1#!
0O
1P
0:
1;
#880000
0%
0Y
0Z
1C
#885000
1%
1Y
1Z
0C
0:!
1$!
0!!
0{
0x
0p
1~
0|
0u
1n
0;!
18!
1=!
1v
1<!
1q
0~
19!
1w
1s
0J
1V
1O
1M
1K
1L
04
1A
1:
18
16
17
0=!
0v
0w
0O
0M
0:
08
#890000
0%
0Y
0Z
1C
#895000
1%
1Y
1Z
0C
1:!
1t
1p
1u
0n
1;!
08!
0<!
09!
1J
0V
0K
14
0A
06
1v
1w
1M
18
