simulation/qsim/IDL_Integrador.msim.vcd
$comment
	File created using the following command:
		vcd file IDL_Integrador.msim.vcd -direction
$end
$date
	Thu Jul 31 18:39:16 2025
$end
$version
	ModelSim Version 10.1d
$end
$timescale
	1ps
$end
$scope module main_vlg_vec_tst $end
$var reg 1 ! b0 $end
$var reg 1 " b1 $end
$var reg 1 # b2 $end
$var reg 1 $ CLK $end
$var reg 1 % Continuar $end
$var reg 1 & Dato0 $end
$var reg 1 ' Dato1 $end
$var reg 1 ( Dato2 $end
$var reg 1 ) Dato3 $end
$var reg 1 * Dato4 $end
$var reg 1 + Dato5 $end
$var reg 1 , Dato6 $end
$var reg 1 - Dato7 $end
$var reg 1 . Dato8 $end
$var reg 1 / Dato9 $end
$var reg 1 0 Dato10 $end
$var reg 1 1 Dato11 $end
$var reg 1 2 LOAD_F $end
$var reg 1 3 LOAD_I $end
$var reg 1 4 Recargar $end
$var reg 1 5 Reset $end
$var reg 1 6 Start $end
$var reg 1 7 updown $end
$var wire 1 8 Ak_out0 $end
$var wire 1 9 Ak_out1 $end
$var wire 1 : Ak_out2 $end
$var wire 1 ; Ak_out3 $end
$var wire 1 < Ak_out4 $end
$var wire 1 = Ak_out5 $end
$var wire 1 > Ak_out6 $end
$var wire 1 ? Ak_out7 $end
$var wire 1 @ Ak_out8 $end
$var wire 1 A Ak_out9 $end
$var wire 1 B Ak_out10 $end
$var wire 1 C Ak_out11 $end
$var wire 1 D ENABLE_COUNT $end
$var wire 1 E ERROR $end
$var wire 1 F FIN $end
$var wire 1 G igual $end
$var wire 1 H mayor $end
$var wire 1 I menor $end
$var wire 1 J PAUSA $end
$var wire 1 K sampler $end
$scope module i1 $end
$var wire 1 L gnd $end
$var wire 1 M vcc $end
$var wire 1 N unknown $end
$var tri1 1 O devclrn $end
$var tri1 1 P devpor $end
$var tri1 1 Q devoe $end
$var wire 1 R FIN~output_o $end
$var wire 1 S PAUSA~output_o $end
$var wire 1 T ENABLE_COUNT~output_o $end
$var wire 1 U ERROR~output_o $end
$var wire 1 V Ak_out0~output_o $end
$var wire 1 W Ak_out1~output_o $end
$var wire 1 X Ak_out2~output_o $end
$var wire 1 Y Ak_out3~output_o $end
$var wire 1 Z Ak_out4~output_o $end
$var wire 1 [ Ak_out5~output_o $end
$var wire 1 \ Ak_out6~output_o $end
$var wire 1 ] Ak_out7~output_o $end
$var wire 1 ^ Ak_out8~output_o $end
$var wire 1 _ Ak_out9~output_o $end
$var wire 1 ` Ak_out10~output_o $end
$var wire 1 a Ak_out11~output_o $end
$var wire 1 b igual~output_o $end
$var wire 1 c mayor~output_o $end
$var wire 1 d menor~output_o $end
$var wire 1 e CLK~input_o $end
$var wire 1 f CLK~inputclkctrl_outclk $end
$var wire 1 g Continuar~input_o $end
$var wire 1 h Recargar~input_o $end
$var wire 1 i inst2|inst13~combout $end
$var wire 1 j b1~input_o $end
$var wire 1 k b2~input_o $end
$var wire 1 l b0~input_o $end
$var wire 1 m inst2|inst3~combout $end
$var wire 1 n updown~input_o $end
$var wire 1 o Dato1~input_o $end
$var wire 1 p LOAD_I~input_o $end
$var wire 1 q LOAD_F~input_o $end
$var wire 1 r inst|inst4~0_combout $end
$var wire 1 s inst|inst5~0_combout $end
$var wire 1 t inst|V_F|inst13~q $end
$var wire 1 u inst6~combout $end
$var wire 1 v Dato0~input_o $end
$var wire 1 w inst|inst4~1_combout $end
$var wire 1 x inst|V_I|inst12~q $end
$var wire 1 y Inc|inst2|inst1~combout $end
$var wire 1 z Reset~input_o $end
$var wire 1 { inst25~0_combout $end
$var wire 1 | inst25~1_combout $end
$var wire 1 } Inc|inst2|inst7~q $end
$var wire 1 ~ Inc|inst2|inst2~0_combout $end
$var wire 1 !! Inc|inst2|inst6~q $end
$var wire 1 "! Inc|inst2|inst8~combout $end
$var wire 1 #! Inc|inst3|LPM_MUX_component|auto_generated|result_node[0]~30_combout $end
$var wire 1 $! Inc|inst2|inst9~0_combout $end
$var wire 1 %! Inc|inst1|inst12~q $end
$var wire 1 &! Inc|inst|inst17~0_combout $end
$var wire 1 '! Inc|inst|inst17~1_combout $end
$var wire 1 (! Inc|inst1|inst13~q $end
$var wire 1 )! Inc|inst7|inst1|inst3|inst10~combout $end
$var wire 1 *! inst|V_I|inst13~q $end
$var wire 1 +! Inc|inst3|LPM_MUX_component|auto_generated|result_node[1]~40_combout $end
$var wire 1 ,! inst|V_F|inst12~q $end
$var wire 1 -! Dato2~input_o $end
$var wire 1 .! inst|V_F|inst11~q $end
$var wire 1 /! Dato3~input_o $end
$var wire 1 0! inst|V_F|inst10~q $end
$var wire 1 1! inst|V_I|inst11~q $end
$var wire 1 2! Inc|inst|inst6~0_combout $end
$var wire 1 3! Inc|inst|inst13~0_combout $end
$var wire 1 4! Inc|inst1|inst11~q $end
$var wire 1 5! Inc|inst|inst6~1_combout $end
$var wire 1 6! Inc|inst7|inst1|inst5~0_combout $end
$var wire 1 7! Inc|inst7|inst2|inst3|inst10~combout $end
$var wire 1 8! Inc|inst3|LPM_MUX_component|auto_generated|result_node[2]~38_combout $end
$var wire 1 9! inst|V_I|inst10~q $end
$var wire 1 :! Inc|inst1|inst10~q $end
$var wire 1 ;! Inc|inst7|inst2|inst5~0_combout $end
$var wire 1 <! Inc|inst|inst3~0_combout $end
$var wire 1 =! Inc|inst|inst~combout $end
$var wire 1 >! Inc|inst3|LPM_MUX_component|auto_generated|result_node[3]~29_combout $end
$var wire 1 ?! Inc|inst3|LPM_MUX_component|auto_generated|result_node[3]~39_combout $end
$var wire 1 @! inst1|inst1|inst1|inst21~combout $end
$var wire 1 A! inst1|inst7~0_combout $end
$var wire 1 B! Dato4~input_o $end
$var wire 1 C! inst|V_F|inst9~q $end
$var wire 1 D! inst|V_I|inst9~q $end
$var wire 1 E! Inc|inst1|inst9~q $end
$var wire 1 F! Inc|inst7|inst3|inst5~0_combout $end
$var wire 1 G! Inc|inst3|LPM_MUX_component|auto_generated|result_node[4]~27_combout $end
$var wire 1 H! Inc|inst3|LPM_MUX_component|auto_generated|result_node[4]~34_combout $end
$var wire 1 I! Dato5~input_o $end
$var wire 1 J! inst|V_F|inst8~q $end
$var wire 1 K! inst|V_I|inst8~q $end
$var wire 1 L! Inc|inst1|inst8~q $end
$var wire 1 M! Inc|inst7|inst4|inst5~0_combout $end
$var wire 1 N! Inc|inst3|LPM_MUX_component|auto_generated|result_node[5]~28_combout $end
$var wire 1 O! Inc|inst3|LPM_MUX_component|auto_generated|result_node[5]~35_combout $end
$var wire 1 P! inst1|inst|inst7~1_combout $end
$var wire 1 Q! Dato10~input_o $end
$var wire 1 R! inst|V_I|inst3~feeder_combout $end
$var wire 1 S! inst|V_I|inst3~q $end
$var wire 1 T! inst|V_F|inst3~q $end
$var wire 1 U! Inc|inst3|LPM_MUX_component|auto_generated|result_node[10]~37_combout $end
$var wire 1 V! Inc|inst1|inst3~feeder_combout $end
$var wire 1 W! Inc|inst1|inst3~q $end
$var wire 1 X! Dato8~input_o $end
$var wire 1 Y! inst|V_I|inst5~q $end
$var wire 1 Z! Dato7~input_o $end
$var wire 1 [! inst|V_I|inst6~q $end
$var wire 1 \! Dato6~input_o $end
$var wire 1 ]! inst|V_I|inst7~feeder_combout $end
$var wire 1 ^! inst|V_I|inst7~q $end
$var wire 1 _! Inc|inst7|inst5|inst5~0_combout $end
$var wire 1 `! Inc|inst3|LPM_MUX_component|auto_generated|result_node[6]~20_combout $end
$var wire 1 a! Inc|inst3|LPM_MUX_component|auto_generated|result_node[6]~31_combout $end
$var wire 1 b! Inc|inst1|inst7~q $end
$var wire 1 c! Inc|inst7|inst6|inst5~0_combout $end
$var wire 1 d! Inc|inst3|LPM_MUX_component|auto_generated|result_node[7]~21_combout $end
$var wire 1 e! Inc|inst3|LPM_MUX_component|auto_generated|result_node[7]~32_combout $end
$var wire 1 f! Inc|inst1|inst6~q $end
$var wire 1 g! Inc|inst7|inst7|inst5~0_combout $end
$var wire 1 h! Inc|inst3|LPM_MUX_component|auto_generated|result_node[8]~24_combout $end
$var wire 1 i! Inc|inst3|LPM_MUX_component|auto_generated|result_node[8]~33_combout $end
$var wire 1 j! Inc|inst1|inst5~q $end
$var wire 1 k! Dato9~input_o $end
$var wire 1 l! inst|V_I|inst4~q $end
$var wire 1 m! Inc|inst3|LPM_MUX_component|auto_generated|result_node[9]~25_combout $end
$var wire 1 n! Inc|inst3|LPM_MUX_component|auto_generated|result_node[9]~26_combout $end
$var wire 1 o! Inc|inst1|inst4~q $end
$var wire 1 p! Inc|inst7|inst9|inst5~0_combout $end
$var wire 1 q! Inc|inst3|LPM_MUX_component|auto_generated|result_node[10]~23_combout $end
$var wire 1 r! inst1|inst|inst1|inst1|inst20~combout $end
$var wire 1 s! inst|V_F|inst5~q $end
$var wire 1 t! inst|V_F|inst4~q $end
$var wire 1 u! inst1|inst13~0_combout $end
$var wire 1 v! Dato11~input_o $end
$var wire 1 w! inst|V_I|inst~q $end
$var wire 1 x! inst|V_F|inst~q $end
$var wire 1 y! Inc|inst3|LPM_MUX_component|auto_generated|result_node[11]~36_combout $end
$var wire 1 z! Inc|inst1|inst~feeder_combout $end
$var wire 1 {! Inc|inst1|inst~q $end
$var wire 1 |! Inc|inst7|inst10|inst5~0_combout $end
$var wire 1 }! Inc|inst3|LPM_MUX_component|auto_generated|result_node[11]~22_combout $end
$var wire 1 ~! inst1|inst|inst1|inst1|inst19~combout $end
$var wire 1 !" inst1|inst|inst1|inst7~combout $end
$var wire 1 "" inst|V_F|inst7~q $end
$var wire 1 #" inst|V_F|inst6~q $end
$var wire 1 $" inst1|inst|inst7~0_combout $end
$var wire 1 %" inst1|inst|inst7~2_combout $end
$var wire 1 &" inst1|inst7~combout $end
$var wire 1 '" inst1|inst13~5_combout $end
$var wire 1 (" inst1|inst13~4_combout $end
$var wire 1 )" inst1|inst13~6_combout $end
$var wire 1 *" inst1|inst|inst|inst1|inst11~0_combout $end
$var wire 1 +" inst1|inst13~1_combout $end
$var wire 1 ," inst1|inst|inst1|inst|inst11~0_combout $end
$var wire 1 -" inst1|inst|inst|inst|inst11~0_combout $end
$var wire 1 ." inst1|inst13~2_combout $end
$var wire 1 /" inst1|inst|inst1|inst1|inst11~0_combout $end
$var wire 1 0" inst1|inst13~3_combout $end
$var wire 1 1" inst1|inst13~7_combout $end
$var wire 1 2" inst1|inst15~2_combout $end
$var wire 1 3" inst1|inst15~3_combout $end
$var wire 1 4" inst1|inst15~4_combout $end
$var wire 1 5" inst1|inst|inst1|inst|a~0_combout $end
$var wire 1 6" inst1|inst|inst1|inst1|a~0_combout $end
$var wire 1 7" inst1|inst|inst|inst1|a~0_combout $end
$var wire 1 8" inst1|inst|inst|inst|a~0_combout $end
$var wire 1 9" inst1|inst15~0_combout $end
$var wire 1 :" inst1|inst15~1_combout $end
$var wire 1 ;" inst1|inst15~5_combout $end
$var wire 1 <" inst2|inst39~0_combout $end
$var wire 1 =" inst2|inst10|inst~0_combout $end
$var wire 1 >" inst2|inst10|inst~1_combout $end
$var wire 1 ?" Reset~inputclkctrl_outclk $end
$var wire 1 @" inst2|inst5~q $end
$var wire 1 A" inst2|inst12~0_combout $end
$var wire 1 B" inst2|inst9|inst6~0_combout $end
$var wire 1 C" inst2|inst14~0_combout $end
$var wire 1 D" inst2|inst8|inst4~combout $end
$var wire 1 E" Start~input_o $end
$var wire 1 F" inst2|inst9|inst2~0_combout $end
$var wire 1 G" inst2|inst9|inst2~1_combout $end
$var wire 1 H" inst2|inst9|inst2~2_combout $end
$var wire 1 I" inst2|inst6~q $end
$var wire 1 J" inst2|inst8|inst2~0_combout $end
$var wire 1 K" inst2|inst8|inst2~1_combout $end
$var wire 1 L" inst2|inst8|inst2~2_combout $end
$var wire 1 M" inst2|inst8|inst2~3_combout $end
$var wire 1 N" inst2|inst7~q $end
$var wire 1 O" inst2|inst22~0_combout $end
$var wire 1 P" inst2|inst14~combout $end
$upscope $end
$upscope $end
$enddefinitions $end
#0
$dumpvars
0!
1"
0#
0$
1%
0&
0'
0(
0)
0*
0+
0,
0-
0.
0/
00
01
02
03
04
05
06
17
08
09
0:
0;
0<
0=
0>
0?
0@
0A
0B
0C
0D
0E
0F
1G
0H
0I
0J
xK
0L
1M
xN
1O
1P
1Q
0R
0S
0T
0U
0V
0W
0X
0Y
0Z
0[
0\
0]
0^
0_
0`
0a
1b
0c
0d
0e
0f
1g
0h
0i
1j
0k
0l
0m
1n
0o
0p
0q
0r
0s
0t
0u
0v
0w
0x
0y
0z
0{
1|
0}
0~
0!!
0"!
0#!
0$!
0%!
1&!
0'!
0(!
0)!
0*!
0+!
0,!
0-!
0.!
0/!
00!
01!
12!
03!
04!
05!
06!
07!
08!
09!
0:!
0;!
0<!
0=!
0>!
0?!
0@!
1A!
0B!
0C!
0D!
0E!
0F!
0G!
0H!
0I!
0J!
0K!
0L!
0M!
0N!
0O!
0P!
0Q!
0R!
0S!
0T!
0U!
0V!
0W!
0X!
0Y!
0Z!
0[!
0\!
0]!
0^!
0_!
0`!
0a!
0b!
0c!
0d!
0e!
0f!
0g!
0h!
0i!
0j!
0k!
0l!
0m!
0n!
0o!
0p!
0q!
0r!
0s!
0t!
1u!
0v!
0w!
0x!
0y!
0z!
0{!
0|!
0}!
0~!
0!"
0""
0#"
1$"
0%"
1&"
0'"
0("
0)"
0*"
0+"
0,"
0-"
0."
0/"
00"
01"
02"
03"
04"
05"
06"
07"
08"
09"
0:"
0;"
1<"
0="
0>"
0?"
0@"
0A"
0B"
0C"
0D"
0E"
0F"
0G"
0H"
0I"
0J"
0K"
0L"
0M"
0N"
0O"
0P"
$end
#5000
1$
1e
1f
0K
#10000
15
0$
1z
0e
1?"
0f
1K
0|
#15000
1$
1e
1f
0K
#20000
0$
0e
0f
1K
#25000
1$
1e
1f
0K
#30000
11
10
1/
1.
1-
1,
1*
1)
1(
1'
12
0$
1v!
1Q!
1k!
1X!
1Z!
1\!
1B!
1/!
1-!
1o
1q
0e
0f
1K
1R!
1]!
1K"
1L"
1M"
#35000
1$
1e
1f
0K
1N"
1r
1s
#40000
0$
0e
0f
1K
#45000
1$
1e
1f
0K
1#"
1""
1x!
1t!
1s!
1T!
1C!
10!
1.!
1t
1*"
0$"
16"
1~!
1,"
0u!
1r!
1-"
1P!
1("
1@!
1'"
0&"
1+"
1%"
1!"
1."
1)"
0A!
0<"
0b
0G
19"
1:"
1;"
1c
1H
#50000
0$
0e
0f
1K
#55000
1$
1e
1f
0K
#60000
0$
0e
0f
1K
#65000
1$
1e
1f
0K
#70000
0$
0e
0f
1K
#75000
1$
1e
1f
0K
#80000
0$
0e
0f
1K
#85000
1$
1e
1f
0K
#90000
0$
0e
0f
1K
#95000
1$
1e
1f
0K
#100000
0$
0e
0f
1K
#105000
1$
1e
1f
0K
#110000
0$
0e
0f
1K
#115000
1$
1e
1f
0K
#120000
0$
0e
0f
1K
#125000
1$
1e
1f
0K
#130000
0$
0e
0f
1K
#135000
1$
1e
1f
0K
#140000
0$
0e
0f
1K
#145000
1$
1e
1f
0K
#150000
0$
0e
0f
1K
#155000
1$
1e
1f
0K
#160000
0$
0e
0f
1K
#165000
1$
1e
1f
0K
#170000
0$
0e
0f
1K
#175000
1$
1e
1f
0K
#180000
0$
0e
0f
1K
#185000
1$
1e
1f
0K
#190000
0$
0e
0f
1K
#195000
1$
1e
1f
0K
#200000
0$
0e
0f
1K
#205000
1$
1e
1f
0K
#210000
0$
0e
0f
1K
#215000
1$
1e
1f
0K
#220000
0$
0e
0f
1K
#225000
1$
1e
1f
0K
#230000
0$
0e
0f
1K
#235000
1$
1e
1f
0K
#240000
0$
0e
0f
1K
#245000
1$
1e
1f
0K
#250000
0$
0e
0f
1K
#255000
1$
1e
1f
0K
#260000
0$
0e
0f
1K
#265000
1$
1e
1f
0K
#270000
0$
0e
0f
1K
#275000
1$
1e
1f
0K
#280000
0$
0e
0f
1K
#285000
1$
1e
1f
0K
#290000
0$
0e
0f
1K
#295000
1$
1e
1f
0K
#300000
0$
0e
0f
1K
#305000
1$
1e
1f
0K
#310000
0$
0e
0f
1K
#315000
1$
1e
1f
0K
#320000
0$
0e
0f
1K
#325000
1$
1e
1f
0K
#330000
01
00
0/
0.
0-
0,
0*
0)
0(
0'
02
0$
0v!
0Q!
0k!
0X!
0Z!
0\!
0B!
0/!
0-!
0o
0q
0e
0f
1K
0R!
0]!
0K"
0s
0L"
0M"
#335000
1$
1e
1f
0K
0N"
0r
#340000
0$
0e
0f
1K
#345000
1$
1e
1f
0K
#350000
0$
0e
0f
1K
#355000
1$
1e
1f
0K
#360000
0$
0e
0f
1K
#365000
1$
1e
1f
0K
#370000
0$
0e
0f
1K
#375000
1$
1e
1f
0K
#380000
0$
0e
0f
1K
#385000
1$
1e
1f
0K
#390000
0$
0e
0f
1K
#395000
1$
1e
1f
0K
#400000
0$
0e
0f
1K
#405000
1$
1e
1f
0K
#410000
0$
0e
0f
1K
#415000
1$
1e
1f
0K
#420000
1&
13
1(
1'
0$
1v
1p
1-!
1o
0e
0f
1K
1K"
1L"
1M"
#425000
1$
1e
1f
0K
1N"
1r
1w
#430000
0$
0e
0f
1K
#435000
1$
1e
1f
0K
11!
1*!
1x
18!
1+!
1#!
13"
0'"
1X
1W
1V
1:
19
18
#440000
0$
0e
0f
1K
#445000
1$
1e
1f
0K
#450000
0$
0e
0f
1K
#455000
1$
1e
1f
0K
#460000
0$
0e
0f
1K
#465000
1$
1e
1f
0K
#470000
0$
0e
0f
1K
#475000
1$
1e
1f
0K
#480000
0$
0e
0f
1K
#485000
1$
1e
1f
0K
#490000
0$
0e
0f
1K
#495000
1$
1e
1f
0K
#500000
0$
0e
0f
1K
#505000
1$
1e
1f
0K
#510000
0$
0e
0f
1K
#515000
1$
1e
1f
0K
#520000
0$
0e
0f
1K
#525000
1$
1e
1f
0K
#530000
0$
0e
0f
1K
#535000
1$
1e
1f
0K
#540000
0$
0e
0f
1K
#545000
1$
1e
1f
0K
#550000
0&
03
0(
0'
0$
0v
0p
0-!
0o
0e
0f
1K
0K"
0w
0L"
0M"
#555000
1$
1e
1f
0K
0N"
0r
#560000
16
0$
1E"
0e
0f
1K
1F"
1G"
1H"
#565000
1$
1e
1f
0K
1I"
0G"
1C"
0H"
1D"
1M"
1H"
#570000
06
0$
0E"
0e
0f
1K
0F"
#575000
1$
1e
1f
0K
1N"
0C"
1'!
1A"
0D"
1)!
1J"
1B"
1<!
13!
1y
1T
1D
1=!
17!
1m!
#580000
0$
0e
0f
1K
#585000
1$
1e
1f
0K
1}
1$!
1~
0y
#590000
0$
0e
0f
1K
#595000
1$
1e
1f
0K
14!
1(!
1%!
1!!
0}
1;!
07!
16!
0)!
1"!
1M!
1F!
17!
1}!
1q!
1h!
1d!
1`!
1N!
1G!
08!
0+!
1n!
1c!
0N!
1_!
0G!
0~!
0r!
03"
1'"
0X
0W
1_
0:
09
1A
18!
1y!
1U!
1i!
1e!
1a!
1O!
1H!
0m!
0d!
1g!
0`!
0+"
06"
1z!
1V!
0,"
1u!
0*"
1$"
18"
0-"
1X
1a
1`
1^
1]
1\
1[
1Z
1:
1C
1B
1@
1?
1>
1=
1<
0O!
0H!
1p!
0h!
09"
10"
0."
0:"
0!"
08"
1-"
0[
0Z
0=
0<
0n!
0e!
0a!
1|!
0q!
00"
1."
1,"
0u!
1*"
0$"
0_
0]
0\
0A
0?
0>
0i!
11"
0;"
0}!
1r!
10"
1!"
1<"
0^
1d
0c
0@
1I
0H
0U!
01"
1~!
1+"
0H"
1="
1/"
0V!
0<"
0`
0d
0B
0I
0y!
11"
19"
1>"
1H"
0="
16"
0/"
0z!
1<"
0a
1d
0C
1I
1:"
0>"
00"
0H"
1="
1>"
1;"
01"
0<"
1c
0d
1H
0I
1H"
0="
0>"
#600000
0$
0e
0f
1K
#605000
1$
1e
1f
0K
0(!
06!
1)!
07!
1+!
13"
0'"
1W
19
08!
0X
0:
#610000
0$
0e
0f
1K
#615000
1$
1e
1f
0K
04!
1(!
0;!
17!
16!
0)!
0M!
0F!
1>!
1;!
07!
18!
0+!
0c!
1N!
0_!
1G!
1M!
1F!
0>!
03"
1'"
1X
0W
1:
09
1?!
08!
1m!
1d!
0g!
1`!
1c!
0N!
1_!
0G!
1Y
0X
1;
0:
1O!
1H!
0?!
0p!
1h!
0m!
0d!
1g!
0`!
18"
0-"
1[
1Z
0Y
1=
1<
0;
1n!
1e!
1a!
0O!
0H!
0|!
1q!
1p!
0h!
0*"
1$"
08"
1-"
1_
1]
1\
0[
0Z
1A
1?
1>
0=
0<
1i!
0n!
0e!
0a!
1}!
0r!
1|!
0q!
1*"
0$"
1^
0_
0]
0\
1@
0A
0?
0>
1U!
0i!
0~!
0}!
1r!
1V!
1`
0^
1B
0@
1y!
0U!
1~!
06"
1/"
1z!
0V!
1a
0`
1C
0B
0y!
0:"
10"
16"
0/"
0z!
0a
0C
1:"
00"
0;"
11"
1<"
0c
1d
0H
1I
1;"
01"
0H"
1="
0<"
1c
0d
1H
0I
1>"
1H"
0="
0>"
#620000
0$
0e
0f
1K
#625000
1$
1e
1f
0K
0(!
06!
1)!
0;!
17!
1+!
0M!
0F!
1>!
13"
0'"
1W
19
18!
0c!
1N!
0_!
1G!
1X
1:
1?!
1m!
1d!
0g!
1`!
0("
0@!
1Y
1;
1O!
1H!
0p!
1h!
0)"
14"
18"
0-"
1[
1Z
1=
1<
1n!
1e!
1a!
0|!
1q!
0*"
1$"
1_
1]
1\
1A
1?
1>
1i!
1}!
0r!
0,"
1u!
1^
1@
1U!
0~!
1V!
1`
1B
1y!
0+"
0!"
06"
1z!
1a
1C
10"
0."
00"
11"
1<"
1d
1I
01"
0H"
1="
0<"
0d
0I
1>"
1H"
0="
0>"
#630000
0$
0e
0f
1K
#635000
1$
1e
1f
0K
1{!
1o!
1j!
1f!
1b!
1W!
1L!
1E!
1:!
14!
1(!
0}!
1p!
0m!
0h!
1g!
0d!
1c!
0`!
1|!
0q!
1_!
0N!
1M!
0G!
1F!
0>!
1;!
07!
16!
0)!
0n!
1~!
1q!
1h!
1d!
1}!
1r!
1`!
1N!
1G!
1>!
17!
1,"
0u!
0_
0A
0y!
1n!
0i!
0e!
0a!
0U!
0O!
0H!
0?!
08!
0+!
1+"
1!"
0r!
0~!
16"
0z!
1*"
0$"
0V!
08"
1-"
1("
1@!
03"
1'"
0a
1_
0^
0]
0\
0`
0[
0Z
0Y
0X
0W
0C
1A
0@
0?
0>
0B
0=
0<
0;
0:
09
1U!
1i!
1e!
1y!
1a!
1O!
1H!
1?!
18!
10"
1."
0+"
1)"
04"
06"
1V!
0,"
1u!
0*"
1$"
1z!
18"
0-"
0("
0@!
1`
1^
1]
1a
1\
1[
1Z
1Y
1X
1B
1@
1?
1C
1>
1=
1<
1;
1:
09"
0."
0:"
0!"
11"
00"
19"
1<"
1d
1I
0;"
1:"
0H"
1="
0c
0H
01"
1>"
0<"
0d
0I
1;"
1H"
0="
1c
1H
0>"
#640000
0$
0e
0f
1K
#645000
1$
1e
1f
0K
0(!
06!
1)!
07!
1+!
13"
0'"
1W
19
08!
14"
0)"
1("
1@!
0X
0:
1)"
04"
#650000
0$
0e
0f
1K
#655000
1$
1e
1f
0K
04!
1(!
0;!
17!
16!
0)!
0>!
1;!
07!
18!
0+!
1>!
0("
0@!
03"
1'"
1X
0W
1:
09
0?!
08!
1("
1@!
0Y
0X
0;
0:
1?!
1Y
1;
#660000
0"
0$
0j
0e
0f
1K
0<!
02!
0&!
1m
0=!
03!
0'!
0J"
0B"
1="
0}!
0q!
1m!
0h!
0d!
0`!
0N!
0G!
0>!
0;!
17!
06!
1)!
0M"
0H"
1>"
1~!
1r!
0M!
0F!
1>!
07!
0y!
0U!
0n!
0i!
0e!
0a!
0O!
0H!
0?!
18!
1+!
1+"
1!"
0c!
1N!
0_!
1G!
16"
0z!
0V!
1,"
0u!
1*"
0$"
08"
1-"
13"
0'"
0a
0`
0_
0^
0]
0\
0[
0Z
0Y
1X
1W
0C
0B
0A
0@
0?
0>
0=
0<
0;
1:
19
1?!
08!
10"
1."
0m!
1d!
0g!
1`!
1Y
0X
1;
0:
1O!
1H!
00"
0p!
1h!
18"
0-"
1[
1Z
1=
1<
11"
1n!
1e!
1a!
0|!
1q!
1<"
0*"
1$"
1d
1_
1]
1\
1I
1A
1?
1>
01"
1i!
1}!
0r!
0<"
0,"
1u!
0d
1^
0I
1@
1U!
0~!
1V!
1`
1B
1y!
0+"
0!"
06"
1z!
1a
1C
10"
0."
00"
11"
1<"
1d
1I
01"
0<"
0d
0I
#665000
1$
1e
1f
0K
0N"
0I"
1@"
0A"
1i
1y
0T
1S
0D
1J
#670000
0$
0e
0f
1K
#675000
1$
1e
1f
0K
1}
0$!
0"!
18!
0}!
0q!
0h!
0d!
0`!
0N!
0G!
0>!
0("
0@!
1X
1:
0n!
1~!
1r!
0)"
14"
1,"
0u!
0_
0A
0y!
0U!
0i!
0e!
0a!
0O!
0H!
0?!
1+"
1!"
16"
0z!
0V!
1*"
0$"
08"
1-"
1("
1@!
0a
0`
0^
0]
0\
0[
0Z
0Y
0C
0B
0@
0?
0>
0=
0<
0;
10"
1."
1)"
04"
00"
11"
1<"
1d
1I
01"
0<"
0d
0I
#680000
0$
0e
0f
1K
#685000
1$
1e
1f
0K
#690000
0$
0e
0f
1K
#695000
1$
1e
1f
0K
#700000
0$
0e
0f
1K
#705000
1$
1e
1f
0K
#710000
0$
0e
0f
1K
#715000
1$
1e
1f
0K
#720000
0$
0e
0f
1K
#725000
1$
1e
1f
0K
#730000
0$
0e
0f
1K
#735000
1$
1e
1f
0K
#740000
0$
0e
0f
1K
#745000
1$
1e
1f
0K
#750000
0$
0e
0f
1K
#755000
1$
1e
1f
0K
#760000
1"
0$
1j
0e
0f
1K
12!
1&!
0m
1J"
1F"
0="
1M"
1G"
0>"
1H"
#765000
1$
1e
1f
0K
1N"
1I"
0@"
0G"
1'!
0F"
1A"
0i
0H"
16!
0)!
1B"
1<!
13!
0y
1T
0S
1D
0J
1;!
1H"
1|!
1F!
1=!
1M!
1_!
1p!
1g!
1c!
#770000
0$
0e
0f
1K
#775000
1$
1e
1f
0K
0}
1$!
1"!
08!
0+!
1}!
1q!
1h!
1d!
1`!
1N!
1G!
1>!
03"
1'"
0X
0W
0:
09
1n!
0~!
0r!
1_
1A
1y!
1U!
1i!
1e!
1a!
1O!
1H!
1?!
0+"
06"
1z!
1V!
0,"
1u!
0*"
1$"
18"
0-"
1a
1`
1^
1]
1\
1[
1Z
1Y
1C
1B
1@
1?
1>
1=
1<
1;
09"
10"
0."
0:"
0!"
00"
19"
11"
0;"
1:"
1<"
1d
0c
1I
0H
01"
0H"
1="
0<"
0d
0I
1;"
1>"
1H"
0="
1c
1H
0>"
#780000
0$
0e
0f
1K
#785000
1$
1e
1f
0K
0(!
06!
1)!
0;!
17!
1+!
0>!
13"
0'"
1W
19
18!
0("
0@!
1X
1:
0?!
0)"
14"
1("
1@!
0Y
0;
1)"
04"
#790000
0$
0e
0f
1K
#795000
1$
1e
1f
0K
0:!
14!
1(!
0F!
1>!
1;!
07!
16!
0)!
0G!
1F!
0>!
17!
1?!
08!
0+!
1G!
03"
1'"
1Y
0X
0W
1;
0:
09
0H!
0?!
18!
0Z
0Y
1X
0<
0;
1:
1H!
1Z
1<
#800000
0$
0e
0f
1K
#805000
1$
1e
1f
0K
0(!
06!
1)!
07!
1+!
13"
0'"
1W
19
08!
0X
0:
#810000
0$
0e
0f
1K
#815000
1$
1e
1f
0K
04!
1(!
0;!
17!
16!
0)!
0F!
1>!
1;!
07!
18!
0+!
0G!
1F!
0>!
03"
1'"
1X
0W
1:
09
1?!
08!
1G!
1Y
0X
1;
0:
0H!
0?!
0Z
0Y
0<
0;
1H!
1Z
1<
#820000
0$
0e
0f
1K
#825000
1$
1e
1f
0K
0(!
06!
1)!
0;!
17!
1+!
0F!
1>!
13"
0'"
1W
19
18!
0G!
1X
1:
1?!
0("
0@!
1Y
1;
0H!
0)"
14"
0Z
0<
#830000
0$
0e
0f
1K
#835000
1$
1e
1f
0K
0E!
1:!
14!
1(!
1G!
1F!
0>!
1;!
07!
16!
0)!
0G!
1>!
17!
1H!
0?!
08!
0+!
1("
1@!
03"
1'"
1Z
0Y
0X
0W
1<
0;
0:
09
0H!
1?!
18!
1)"
04"
0("
0@!
0Z
1Y
1X
0<
1;
1:
#840000
0$
0e
0f
1K
#845000
1$
1e
1f
0K
0(!
06!
1)!
07!
1+!
13"
0'"
1W
19
08!
14"
0)"
1("
1@!
0X
0:
1)"
04"
#850000
0$
0e
0f
1K
#855000
1$
1e
1f
0K
04!
1(!
0;!
17!
16!
0)!
0>!
1;!
07!
18!
0+!
1>!
0("
0@!
03"
1'"
1X
0W
1:
09
0?!
08!
1("
1@!
0Y
0X
0;
0:
1?!
1Y
1;
#860000
0$
0e
0f
1K
#865000
1$
1e
1f
0K
0(!
06!
1)!
0;!
17!
1+!
0>!
13"
0'"
1W
19
18!
0("
0@!
1X
1:
0?!
0)"
14"
1("
1@!
0Y
0;
1)"
04"
#870000
0$
0e
0f
1K
#875000
1$
1e
1f
0K
0:!
14!
1(!
0M!
0F!
1>!
1;!
07!
16!
0)!
0N!
1G!
1M!
1F!
0>!
17!
1?!
08!
0+!
1N!
0G!
03"
1'"
1Y
0X
0W
1;
0:
09
0O!
1H!
0?!
18!
08"
0P!
0[
1Z
0Y
1X
0=
1<
0;
1:
1O!
0H!
09"
0%"
18"
1P!
1[
0Z
1=
0<
0:"
19"
1%"
0;"
11"
1:"
1<"
0c
1d
0H
1I
01"
0H"
1="
0<"
0d
0I
1;"
1>"
1H"
0="
1c
1H
0>"
#880000
0$
0e
0f
1K
