simulation/qsim/IDL_Integrador.msim.vcd
$comment
	File created using the following command:
		vcd file IDL_Integrador.msim.vcd -direction
$end
$date
	Tue Jul 22 15:41:31 2025
$end
$version
	ModelSim Version 10.1d
$end
$timescale
	1ps
$end
$scope module comparador12_vlg_vec_tst $end
$var reg 1 ! A0 $end
$var reg 1 " A1 $end
$var reg 1 # A2 $end
$var reg 1 $ A3 $end
$var reg 1 % A4 $end
$var reg 1 & A5 $end
$var reg 1 ' A6 $end
$var reg 1 ( A7 $end
$var reg 1 ) A8 $end
$var reg 1 * A9 $end
$var reg 1 + A10 $end
$var reg 1 , A11 $end
$var reg 1 - B0 $end
$var reg 1 . B1 $end
$var reg 1 / B2 $end
$var reg 1 0 B3 $end
$var reg 1 1 B4 $end
$var reg 1 2 B5 $end
$var reg 1 3 B6 $end
$var reg 1 4 B7 $end
$var reg 1 5 B8 $end
$var reg 1 6 B9 $end
$var reg 1 7 B10 $end
$var reg 1 8 B11 $end
$var wire 1 9 igual $end
$var wire 1 : mayor $end
$var wire 1 ; menor $end
$var wire 1 < sampler $end
$scope module i1 $end
$var wire 1 = gnd $end
$var wire 1 > vcc $end
$var wire 1 ? unknown $end
$var tri1 1 @ devclrn $end
$var tri1 1 A devpor $end
$var tri1 1 B devoe $end
$var wire 1 C igual~output_o $end
$var wire 1 D menor~output_o $end
$var wire 1 E mayor~output_o $end
$var wire 1 F A10~input_o $end
$var wire 1 G B10~input_o $end
$var wire 1 H B11~input_o $end
$var wire 1 I A11~input_o $end
$var wire 1 J inst7~1_combout $end
$var wire 1 K B6~input_o $end
$var wire 1 L A7~input_o $end
$var wire 1 M B7~input_o $end
$var wire 1 N A6~input_o $end
$var wire 1 O inst|inst7~1_combout $end
$var wire 1 P B3~input_o $end
$var wire 1 Q B2~input_o $end
$var wire 1 R A3~input_o $end
$var wire 1 S A2~input_o $end
$var wire 1 T inst13~0_combout $end
$var wire 1 U A4~input_o $end
$var wire 1 V B4~input_o $end
$var wire 1 W A5~input_o $end
$var wire 1 X B5~input_o $end
$var wire 1 Y inst|inst7~0_combout $end
$var wire 1 Z B0~input_o $end
$var wire 1 [ A0~input_o $end
$var wire 1 \ B1~input_o $end
$var wire 1 ] A1~input_o $end
$var wire 1 ^ inst|inst1|inst7~0_combout $end
$var wire 1 _ inst|inst7~2_combout $end
$var wire 1 ` B8~input_o $end
$var wire 1 a A8~input_o $end
$var wire 1 b A9~input_o $end
$var wire 1 c B9~input_o $end
$var wire 1 d inst7~0_combout $end
$var wire 1 e inst7~2_combout $end
$var wire 1 f inst|inst1|inst7~combout $end
$var wire 1 g inst13~4_combout $end
$var wire 1 h inst|inst1|inst|inst11~0_combout $end
$var wire 1 i inst|inst|inst|inst11~0_combout $end
$var wire 1 j inst13~5_combout $end
$var wire 1 k inst|inst|inst1|inst11~0_combout $end
$var wire 1 l inst|inst1|inst1|inst11~0_combout $end
$var wire 1 m inst13~6_combout $end
$var wire 1 n inst13~1_combout $end
$var wire 1 o inst13~2_combout $end
$var wire 1 p inst13~3_combout $end
$var wire 1 q inst13~7_combout $end
$var wire 1 r inst|inst|inst1|a~0_combout $end
$var wire 1 s inst|inst|inst|a~0_combout $end
$var wire 1 t inst15~3_combout $end
$var wire 1 u inst|inst1|inst|a~0_combout $end
$var wire 1 v inst|inst1|inst1|a~0_combout $end
$var wire 1 w inst15~4_combout $end
$var wire 1 x inst15~1_combout $end
$var wire 1 y inst15~0_combout $end
$var wire 1 z inst15~2_combout $end
$var wire 1 { inst15~5_combout $end
$upscope $end
$upscope $end
$enddefinitions $end
#0
$dumpvars
0!
0"
0#
0$
0%
0&
0'
0(
0)
0*
0+
0,
0-
0.
0/
00
01
02
03
04
05
06
07
08
19
0:
0;
x<
0=
1>
x?
1@
1A
1B
1C
0D
0E
0F
0G
0H
0I
1J
0K
0L
0M
0N
1O
0P
0Q
0R
0S
1T
0U
0V
0W
0X
1Y
0Z
0[
0\
0]
1^
1_
0`
0a
0b
0c
1d
1e
0f
0g
0h
0i
0j
0k
0l
0m
0n
0o
0p
0q
0r
0s
0t
0u
0v
0w
0x
0y
0z
0{
$end
#10000
1,
18
1I
1H
0<
#20000
1+
17
08
1F
1G
0H
1<
1x
0J
1z
0e
0C
09
1{
1E
1:
#30000
0,
18
0I
1H
0<
0x
1o
0z
1p
0{
1q
0E
1D
0:
1;
#40000
1*
16
07
08
1b
1c
0G
0H
1<
1x
0o
1z
0p
1{
0q
1E
0D
1:
0;
#50000
1,
18
1I
1H
0<
#60000
0+
17
08
0F
1G
0H
1<
0x
1o
0z
1p
0{
1q
0E
1D
0:
1;
#70000
0,
18
0I
1H
0<
#80000
1)
15
06
07
08
1a
1`
0c
0G
0H
1<
1y
0d
0o
1J
1z
0p
1{
0q
1E
0D
1:
0;
#90000
1,
18
1I
1H
0<
#100000
1+
17
08
1F
1G
0H
1<
1x
0J
#110000
0,
18
0I
1H
0<
0x
1o
#120000
0*
16
07
08
0b
1c
0G
0H
1<
0y
1n
1x
0o
0z
1p
0{
1q
0E
1D
0:
1;
#130000
1,
18
1I
1H
0<
#140000
0+
17
08
0F
1G
0H
1<
0x
1o
#150000
0,
18
0I
1H
0<
#160000
1(
14
05
06
07
08
1L
1M
0`
0c
0G
0H
1<
1y
0n
0o
1J
1z
0p
1{
0q
1E
0D
1:
0;
#170000
1,
18
1I
1H
0<
#180000
1+
17
08
1F
1G
0H
1<
1x
0J
#190000
0,
18
0I
1H
0<
0x
1o
#200000
1*
16
07
08
1b
1c
0G
0H
1<
1x
0o
#210000
1,
18
1I
1H
0<
#220000
0+
17
08
0F
1G
0H
1<
0x
1o
#230000
0,
18
0I
1H
0<
#240000
0)
15
06
07
08
0a
1`
0c
0G
0H
1<
0y
1n
0o
1J
0z
1p
0{
1q
0E
1D
0:
1;
#250000
1,
18
1I
1H
0<
#260000
1+
17
08
1F
1G
0H
1<
1x
0J
#270000
0,
18
0I
1H
0<
0x
1o
#280000
0*
16
07
08
0b
1c
0G
0H
1<
1x
0o
#290000
1,
18
1I
1H
0<
#300000
0+
17
08
0F
1G
0H
1<
0x
1o
#310000
0,
18
0I
1H
0<
#320000
1'
13
04
05
06
07
08
1N
1K
0M
0`
0c
0G
0H
1<
1s
0O
0n
1d
0o
1J
1t
0_
0p
1e
1w
1C
19
0q
0e
0D
0C
0;
09
1{
1E
1:
#330000
1,
18
1I
1H
0<
#340000
1+
17
08
1F
1G
0H
1<
1x
0J
1z
#350000
0,
18
0I
1H
0<
0x
1o
0z
1p
#360000
1*
16
07
08
1b
1c
0G
0H
1<
1x
0o
1z
0p
#370000
1,
18
1I
1H
0<
#380000
0+
17
08
0F
1G
0H
1<
0x
1o
0z
1p
#390000
0,
18
0I
1H
0<
#400000
1)
15
06
07
08
1a
1`
0c
0G
0H
1<
1y
0d
0o
1J
1z
0p
#410000
1,
18
1I
1H
0<
#420000
1+
17
08
1F
1G
0H
1<
1x
0J
#430000
0,
18
0I
1H
0<
0x
1o
#440000
0*
16
07
08
0b
1c
0G
0H
1<
0y
1n
1x
0o
0z
1p
#450000
1,
18
1I
1H
0<
#460000
0+
17
08
0F
1G
0H
1<
0x
1o
#470000
0,
18
0I
1H
0<
#480000
0(
14
05
06
07
08
0L
1M
0`
0c
0G
0H
1<
0s
1i
1y
0n
0o
1J
0t
1j
1z
0p
0w
1m
0{
1q
0E
1D
0:
1;
#490000
1,
18
1I
1H
0<
#500000
1+
17
08
1F
1G
0H
1<
1x
0J
#510000
0,
18
0I
1H
0<
0x
1o
#520000
1*
16
07
08
1b
1c
0G
0H
1<
1x
0o
#530000
1,
18
1I
1H
0<
#540000
0+
17
08
0F
1G
0H
1<
0x
1o
#550000
0,
18
0I
1H
0<
#560000
0)
15
06
07
08
0a
1`
0c
0G
0H
1<
0y
1n
0o
1J
0z
1p
#570000
1,
18
1I
1H
0<
#580000
1+
17
08
1F
1G
0H
1<
1x
0J
#590000
0,
18
0I
1H
0<
0x
1o
#600000
0*
16
07
08
0b
1c
0G
0H
1<
1x
0o
#610000
1,
18
1I
1H
0<
#620000
0+
17
08
0F
1G
0H
1<
0x
1o
#630000
0,
18
0I
1H
0<
#640000
1&
12
03
04
05
06
07
08
1W
1X
0K
0M
0`
0c
0G
0H
1<
1s
0i
0n
1d
0o
1J
1t
0j
0p
1w
0m
1{
0q
1E
0D
1:
0;
#650000
1,
18
1I
1H
0<
#660000
1+
17
08
1F
1G
0H
1<
1x
0J
1z
#670000
0,
18
0I
1H
0<
0x
1o
0z
1p
#680000
1*
16
07
08
1b
1c
0G
0H
1<
1x
0o
1z
0p
#690000
1,
18
1I
1H
0<
#700000
0+
17
08
0F
1G
0H
1<
0x
1o
0z
1p
#710000
0,
18
0I
1H
0<
#720000
1)
15
06
07
08
1a
1`
0c
0G
0H
1<
1y
0d
0o
1J
1z
0p
#730000
1,
18
1I
1H
0<
#740000
1+
17
08
1F
1G
0H
1<
1x
0J
#750000
0,
18
0I
1H
0<
0x
1o
#760000
0*
16
07
08
0b
1c
0G
0H
1<
0y
1n
1x
0o
0z
1p
#770000
1,
18
1I
1H
0<
#780000
0+
17
08
0F
1G
0H
1<
0x
1o
#790000
0,
18
0I
1H
0<
#800000
1(
14
05
06
07
08
1L
1M
0`
0c
0G
0H
1<
1y
0n
0o
1J
1z
0p
#810000
1,
18
1I
1H
0<
#820000
1+
17
08
1F
1G
0H
1<
1x
0J
#830000
0,
18
0I
1H
0<
0x
1o
#840000
1*
16
07
08
1b
1c
0G
0H
1<
1x
0o
#850000
1,
18
1I
1H
0<
#860000
0+
17
08
0F
1G
0H
1<
0x
1o
#870000
0,
18
0I
1H
0<
#880000
0)
15
06
07
08
0a
1`
0c
0G
0H
1<
0y
1n
0o
1J
0z
1p
#890000
1,
18
1I
1H
0<
#900000
1+
17
08
1F
1G
0H
1<
1x
0J
#910000
0,
18
0I
1H
0<
0x
1o
#920000
0*
16
07
08
0b
1c
0G
0H
1<
1x
0o
#930000
1,
18
1I
1H
0<
#940000
0+
17
08
0F
1G
0H
1<
0x
1o
#950000
0,
18
0I
1H
0<
#960000
0'
13
04
05
06
07
08
0N
1K
0M
0`
0c
0G
0H
1<
0s
1i
0n
1d
0o
1J
0t
1j
0p
0w
1m
0{
1q
0E
1D
0:
1;
#970000
1,
18
1I
1H
0<
#980000
1+
17
08
1F
1G
0H
1<
1x
0J
1z
#990000
0,
18
0I
1H
0<
0x
1o
0z
1p
