simulation/qsim/IDL_Integrador.msim.vcd
$comment
	File created using the following command:
		vcd file IDL_Integrador.msim.vcd -direction
$end
$date
	Wed Jul 30 01:41:00 2025
$end
$version
	ModelSim Version 10.1d
$end
$timescale
	1ps
$end
$scope module main_vlg_vec_tst $end
$var reg 1 ! b0 $end
$var reg 1 " b1 $end
$var reg 1 # b2 $end
$var reg 1 $ CLK $end
$var reg 1 % Continuar $end
$var reg 1 & Dato0 $end
$var reg 1 ' Dato1 $end
$var reg 1 ( Dato2 $end
$var reg 1 ) Dato3 $end
$var reg 1 * Dato4 $end
$var reg 1 + Dato5 $end
$var reg 1 , Dato6 $end
$var reg 1 - Dato7 $end
$var reg 1 . Dato8 $end
$var reg 1 / Dato9 $end
$var reg 1 0 Dato10 $end
$var reg 1 1 Dato11 $end
$var reg 1 2 LOAD_F $end
$var reg 1 3 LOAD_I $end
$var reg 1 4 Recargar $end
$var reg 1 5 Reset $end
$var reg 1 6 Start $end
$var reg 1 7 updown $end
$var wire 1 8 Ak_out0 $end
$var wire 1 9 Ak_out1 $end
$var wire 1 : Ak_out2 $end
$var wire 1 ; Ak_out3 $end
$var wire 1 < Ak_out4 $end
$var wire 1 = Ak_out5 $end
$var wire 1 > Ak_out6 $end
$var wire 1 ? Ak_out7 $end
$var wire 1 @ Ak_out8 $end
$var wire 1 A Ak_out9 $end
$var wire 1 B Ak_out10 $end
$var wire 1 C Ak_out11 $end
$var wire 1 D ENABLE_COUNT $end
$var wire 1 E ERROR $end
$var wire 1 F FIN $end
$var wire 1 G igual $end
$var wire 1 H mayor $end
$var wire 1 I menor $end
$var wire 1 J PAUSA $end
$var wire 1 K sampler $end
$scope module i1 $end
$var wire 1 L gnd $end
$var wire 1 M vcc $end
$var wire 1 N unknown $end
$var tri1 1 O devclrn $end
$var tri1 1 P devpor $end
$var tri1 1 Q devoe $end
$var wire 1 R FIN~output_o $end
$var wire 1 S PAUSA~output_o $end
$var wire 1 T ENABLE_COUNT~output_o $end
$var wire 1 U ERROR~output_o $end
$var wire 1 V Ak_out0~output_o $end
$var wire 1 W Ak_out1~output_o $end
$var wire 1 X Ak_out2~output_o $end
$var wire 1 Y Ak_out3~output_o $end
$var wire 1 Z Ak_out4~output_o $end
$var wire 1 [ Ak_out5~output_o $end
$var wire 1 \ Ak_out6~output_o $end
$var wire 1 ] Ak_out7~output_o $end
$var wire 1 ^ Ak_out8~output_o $end
$var wire 1 _ Ak_out9~output_o $end
$var wire 1 ` Ak_out10~output_o $end
$var wire 1 a Ak_out11~output_o $end
$var wire 1 b igual~output_o $end
$var wire 1 c mayor~output_o $end
$var wire 1 d menor~output_o $end
$var wire 1 e CLK~input_o $end
$var wire 1 f CLK~inputclkctrl_outclk $end
$var wire 1 g Recargar~input_o $end
$var wire 1 h b0~input_o $end
$var wire 1 i b1~input_o $end
$var wire 1 j b2~input_o $end
$var wire 1 k inst2|inst3~combout $end
$var wire 1 l inst2|inst9|inst6~0_combout $end
$var wire 1 m Start~input_o $end
$var wire 1 n inst2|inst9|inst2~0_combout $end
$var wire 1 o inst2|inst9|inst2~1_combout $end
$var wire 1 p Dato1~input_o $end
$var wire 1 q Reset~input_o $end
$var wire 1 r Reset~inputclkctrl_outclk $end
$var wire 1 s LOAD_I~input_o $end
$var wire 1 t LOAD_F~input_o $end
$var wire 1 u inst|inst4~0_combout $end
$var wire 1 v inst|inst5~0_combout $end
$var wire 1 w inst|V_F|inst13~q $end
$var wire 1 x Dato0~input_o $end
$var wire 1 y inst|V_F|inst12~q $end
$var wire 1 z Inc|inst2|inst1~combout $end
$var wire 1 { Inc|inst2|inst7~q $end
$var wire 1 | Inc|inst2|inst2~0_combout $end
$var wire 1 } Inc|inst2|inst6~q $end
$var wire 1 ~ inst|inst4~1_combout $end
$var wire 1 !! inst|V_I|inst12~q $end
$var wire 1 "! Inc|inst3|LPM_MUX_component|auto_generated|result_node[0]~1_combout $end
$var wire 1 #! Inc|inst2|inst9~0_combout $end
$var wire 1 $! Inc|inst1|inst12~q $end
$var wire 1 %! inst6~combout $end
$var wire 1 &! Inc|inst7|inst|inst10~combout $end
$var wire 1 '! inst|V_I|inst13~feeder_combout $end
$var wire 1 (! inst|V_I|inst13~q $end
$var wire 1 )! Inc|inst3|LPM_MUX_component|auto_generated|result_node[1]~2_combout $end
$var wire 1 *! Inc|inst1|inst13~q $end
$var wire 1 +! updown~input_o $end
$var wire 1 ,! Inc|inst|inst17~0_combout $end
$var wire 1 -! Inc|inst|inst17~1_combout $end
$var wire 1 .! Inc|inst7|inst1|inst3|inst10~combout $end
$var wire 1 /! inst1|inst7~0_combout $end
$var wire 1 0! Dato2~input_o $end
$var wire 1 1! inst|V_F|inst11~q $end
$var wire 1 2! Dato3~input_o $end
$var wire 1 3! inst|V_F|inst10~feeder_combout $end
$var wire 1 4! inst|V_F|inst10~q $end
$var wire 1 5! Inc|inst|inst3~0_combout $end
$var wire 1 6! inst|V_I|inst10~feeder_combout $end
$var wire 1 7! inst|V_I|inst10~q $end
$var wire 1 8! Inc|inst3|LPM_MUX_component|auto_generated|result_node[3]~4_combout $end
$var wire 1 9! Inc|inst1|inst10~q $end
$var wire 1 :! inst|V_I|inst11~q $end
$var wire 1 ;! Inc|inst|inst6~0_combout $end
$var wire 1 <! Inc|inst|inst13~0_combout $end
$var wire 1 =! Inc|inst|inst6~1_combout $end
$var wire 1 >! Inc|inst7|inst1|inst5~0_combout $end
$var wire 1 ?! Inc|inst7|inst2|inst3|inst10~combout $end
$var wire 1 @! Inc|inst3|LPM_MUX_component|auto_generated|result_node[2]~3_combout $end
$var wire 1 A! Inc|inst1|inst11~q $end
$var wire 1 B! Inc|inst7|inst2|inst5~0_combout $end
$var wire 1 C! Inc|inst7|inst3|inst3|inst10~combout $end
$var wire 1 D! inst1|inst1|inst1|inst21~combout $end
$var wire 1 E! Dato5~input_o $end
$var wire 1 F! inst|V_I|inst8~q $end
$var wire 1 G! Inc|inst3|LPM_MUX_component|auto_generated|result_node[5]~6_combout $end
$var wire 1 H! Inc|inst1|inst8~q $end
$var wire 1 I! Dato4~input_o $end
$var wire 1 J! inst|V_I|inst9~feeder_combout $end
$var wire 1 K! inst|V_I|inst9~q $end
$var wire 1 L! Inc|inst7|inst3|inst5~0_combout $end
$var wire 1 M! Inc|inst7|inst4|inst3|inst10~combout $end
$var wire 1 N! Inc|inst3|LPM_MUX_component|auto_generated|result_node[4]~5_combout $end
$var wire 1 O! Inc|inst1|inst9~q $end
$var wire 1 P! Inc|inst|inst~combout $end
$var wire 1 Q! Inc|inst7|inst4|inst5~0_combout $end
$var wire 1 R! Inc|inst7|inst5|inst3|inst10~combout $end
$var wire 1 S! inst|V_F|inst9~feeder_combout $end
$var wire 1 T! inst|V_F|inst9~q $end
$var wire 1 U! inst|V_F|inst8~q $end
$var wire 1 V! inst1|inst|inst7~1_combout $end
$var wire 1 W! Dato6~input_o $end
$var wire 1 X! inst|V_F|inst7~feeder_combout $end
$var wire 1 Y! inst|V_F|inst7~q $end
$var wire 1 Z! Dato7~input_o $end
$var wire 1 [! inst|V_F|inst6~feeder_combout $end
$var wire 1 \! inst|V_F|inst6~q $end
$var wire 1 ]! inst|V_I|inst6~feeder_combout $end
$var wire 1 ^! inst|V_I|inst6~q $end
$var wire 1 _! Inc|inst3|LPM_MUX_component|auto_generated|result_node[7]~7_combout $end
$var wire 1 `! Inc|inst1|inst6~q $end
$var wire 1 a! inst|V_I|inst7~q $end
$var wire 1 b! Inc|inst7|inst5|inst5~0_combout $end
$var wire 1 c! Inc|inst7|inst6|inst3|inst10~combout $end
$var wire 1 d! Inc|inst3|LPM_MUX_component|auto_generated|result_node[6]~0_combout $end
$var wire 1 e! Inc|inst1|inst7~q $end
$var wire 1 f! Inc|inst7|inst6|inst5~0_combout $end
$var wire 1 g! Inc|inst7|inst7|inst3|inst10~combout $end
$var wire 1 h! inst1|inst|inst7~0_combout $end
$var wire 1 i! Dato10~input_o $end
$var wire 1 j! inst|V_F|inst3~q $end
$var wire 1 k! Dato9~input_o $end
$var wire 1 l! inst|V_I|inst4~q $end
$var wire 1 m! Dato8~input_o $end
$var wire 1 n! inst|V_I|inst5~feeder_combout $end
$var wire 1 o! inst|V_I|inst5~q $end
$var wire 1 p! Inc|inst7|inst7|inst5~0_combout $end
$var wire 1 q! Inc|inst7|inst8|inst3|inst10~combout $end
$var wire 1 r! Inc|inst3|LPM_MUX_component|auto_generated|result_node[8]~9_combout $end
$var wire 1 s! Inc|inst1|inst5~q $end
$var wire 1 t! Inc|inst7|inst8|inst5~0_combout $end
$var wire 1 u! Inc|inst7|inst9|inst3|inst10~combout $end
$var wire 1 v! Inc|inst3|LPM_MUX_component|auto_generated|result_node[9]~10_combout $end
$var wire 1 w! Inc|inst1|inst4~q $end
$var wire 1 x! Inc|inst7|inst9|inst5~0_combout $end
$var wire 1 y! inst|V_I|inst3~feeder_combout $end
$var wire 1 z! inst|V_I|inst3~q $end
$var wire 1 {! Inc|inst7|inst10|inst3|inst10~combout $end
$var wire 1 |! Inc|inst3|LPM_MUX_component|auto_generated|result_node[10]~11_combout $end
$var wire 1 }! Inc|inst1|inst3~q $end
$var wire 1 ~! inst1|inst|inst1|inst1|inst20~combout $end
$var wire 1 !" inst|V_F|inst4~q $end
$var wire 1 "" inst|V_F|inst5~feeder_combout $end
$var wire 1 #" inst|V_F|inst5~q $end
$var wire 1 $" inst1|inst13~0_combout $end
$var wire 1 %" Dato11~input_o $end
$var wire 1 &" inst|V_I|inst~q $end
$var wire 1 '" Inc|inst7|inst10|inst5~0_combout $end
$var wire 1 (" Inc|inst7|inst11|inst3|inst10~combout $end
$var wire 1 )" Inc|inst3|LPM_MUX_component|auto_generated|result_node[11]~8_combout $end
$var wire 1 *" Inc|inst1|inst~q $end
$var wire 1 +" inst|V_F|inst~q $end
$var wire 1 ," inst1|inst|inst1|inst1|inst19~combout $end
$var wire 1 -" inst1|inst|inst1|inst7~combout $end
$var wire 1 ." inst1|inst|inst7~combout $end
$var wire 1 /" inst1|inst7~combout $end
$var wire 1 0" inst2|inst14~0_combout $end
$var wire 1 1" inst1|inst13~5_combout $end
$var wire 1 2" inst1|inst13~4_combout $end
$var wire 1 3" inst1|inst13~6_combout $end
$var wire 1 4" inst1|inst13~1_combout $end
$var wire 1 5" inst1|inst|inst|inst1|inst11~0_combout $end
$var wire 1 6" inst1|inst|inst1|inst|inst11~0_combout $end
$var wire 1 7" inst1|inst|inst|inst|inst11~0_combout $end
$var wire 1 8" inst1|inst13~2_combout $end
$var wire 1 9" inst1|inst|inst1|inst1|inst11~0_combout $end
$var wire 1 :" inst1|inst13~3_combout $end
$var wire 1 ;" inst1|inst13~7_combout $end
$var wire 1 <" inst1|inst15~2_combout $end
$var wire 1 =" inst1|inst15~3_combout $end
$var wire 1 >" inst1|inst15~4_combout $end
$var wire 1 ?" inst1|inst|inst1|inst|a~0_combout $end
$var wire 1 @" inst1|inst|inst|inst|a~0_combout $end
$var wire 1 A" inst1|inst|inst|inst1|a~0_combout $end
$var wire 1 B" inst1|inst15~0_combout $end
$var wire 1 C" inst1|inst|inst1|inst1|a~0_combout $end
$var wire 1 D" inst1|inst15~1_combout $end
$var wire 1 E" inst1|inst15~5_combout $end
$var wire 1 F" inst2|inst8|inst4~combout $end
$var wire 1 G" inst2|inst9|inst2~2_combout $end
$var wire 1 H" inst2|inst6~q $end
$var wire 1 I" Continuar~input_o $end
$var wire 1 J" inst2|inst10|inst~1_combout $end
$var wire 1 K" inst2|inst10|inst~0_combout $end
$var wire 1 L" inst2|inst10|inst~2_combout $end
$var wire 1 M" inst2|inst5~q $end
$var wire 1 N" inst2|inst12~0_combout $end
$var wire 1 O" inst2|inst13~combout $end
$var wire 1 P" inst2|inst8|inst2~0_combout $end
$var wire 1 Q" inst2|inst8|inst2~1_combout $end
$var wire 1 R" inst2|inst8|inst2~2_combout $end
$var wire 1 S" inst2|inst8|inst2~3_combout $end
$var wire 1 T" inst2|inst7~q $end
$var wire 1 U" inst2|inst22~combout $end
$var wire 1 V" inst2|inst14~combout $end
$upscope $end
$upscope $end
$enddefinitions $end
#0
$dumpvars
0!
1"
0#
0$
1%
0&
0'
0(
0)
0*
0+
0,
0-
0.
0/
00
01
02
03
04
05
06
07
08
09
0:
0;
0<
0=
0>
0?
0@
0A
0B
0C
0D
0E
0F
1G
0H
0I
0J
xK
0L
1M
xN
1O
1P
1Q
0R
0S
0T
0U
0V
0W
0X
0Y
0Z
0[
0\
0]
0^
0_
0`
0a
1b
0c
0d
0e
0f
0g
0h
1i
0j
0k
0l
0m
0n
0o
0p
0q
0r
0s
0t
0u
0v
0w
0x
0y
0z
0{
0|
0}
0~
0!!
0"!
0#!
0$!
0%!
0&!
0'!
0(!
0)!
0*!
0+!
1,!
0-!
0.!
1/!
00!
01!
02!
03!
04!
05!
06!
07!
08!
09!
0:!
0;!
0<!
0=!
0>!
0?!
0@!
0A!
0B!
0C!
0D!
0E!
0F!
0G!
0H!
0I!
0J!
0K!
0L!
0M!
0N!
0O!
0P!
0Q!
0R!
0S!
0T!
0U!
0V!
0W!
0X!
0Y!
0Z!
0[!
0\!
0]!
0^!
0_!
0`!
0a!
0b!
0c!
0d!
0e!
0f!
0g!
1h!
0i!
0j!
0k!
0l!
0m!
0n!
0o!
0p!
0q!
0r!
0s!
0t!
0u!
0v!
0w!
0x!
0y!
0z!
0{!
0|!
0}!
0~!
0!"
0""
0#"
1$"
0%"
0&"
0'"
0("
0)"
0*"
0+"
0,"
0-"
0."
1/"
00"
01"
02"
03"
04"
05"
06"
07"
08"
09"
0:"
0;"
0<"
0="
0>"
0?"
0@"
0A"
0B"
0C"
0D"
0E"
0F"
0G"
0H"
1I"
0J"
0K"
0L"
0M"
0N"
0O"
0P"
0Q"
0R"
0S"
0T"
0U"
0V"
$end
#5000
1$
1e
1f
0K
#10000
15
0$
1q
0e
1r
0f
1K
#15000
1$
1e
1f
0K
#20000
0$
0e
0f
1K
#25000
1$
1e
1f
0K
#30000
1*
1)
1(
1'
12
0$
1I!
12!
10!
1p
1t
0e
0f
1K
1S!
1J!
16!
13!
1'!
1Q"
1R"
1S"
#35000
1$
1e
1f
0K
1T"
1u
1v
#40000
0$
0e
0f
1K
#45000
1$
1e
1f
0K
1T!
14!
11!
1w
17"
1V!
12"
1D!
11"
0/!
18"
1."
13"
0/"
1:"
0b
0G
1;"
1d
1I
#50000
0$
0e
0f
1K
#55000
1$
1e
1f
0K
#60000
0$
0e
0f
1K
#65000
1$
1e
1f
0K
#70000
0$
0e
0f
1K
#75000
1$
1e
1f
0K
#80000
0$
0e
0f
1K
#85000
1$
1e
1f
0K
#90000
0$
0e
0f
1K
#95000
1$
1e
1f
0K
#100000
0$
0e
0f
1K
#105000
1$
1e
1f
0K
#110000
0$
0e
0f
1K
#115000
1$
1e
1f
0K
#120000
0$
0e
0f
1K
#125000
1$
1e
1f
0K
#130000
0$
0e
0f
1K
#135000
1$
1e
1f
0K
#140000
0$
0e
0f
1K
#145000
1$
1e
1f
0K
#150000
0$
0e
0f
1K
#155000
1$
1e
1f
0K
#160000
0$
0e
0f
1K
#165000
1$
1e
1f
0K
#170000
0$
0e
0f
1K
#175000
1$
1e
1f
0K
#180000
0$
0e
0f
1K
#185000
1$
1e
1f
0K
#190000
0$
0e
0f
1K
#195000
1$
1e
1f
0K
#200000
0$
0e
0f
1K
#205000
1$
1e
1f
0K
#210000
0$
0e
0f
1K
#215000
1$
1e
1f
0K
#220000
0$
0e
0f
1K
#225000
1$
1e
1f
0K
#230000
0$
0e
0f
1K
#235000
1$
1e
1f
0K
#240000
0$
0e
0f
1K
#245000
1$
1e
1f
0K
#250000
0$
0e
0f
1K
#255000
1$
1e
1f
0K
#260000
0$
0e
0f
1K
#265000
1$
1e
1f
0K
#270000
0$
0e
0f
1K
#275000
1$
1e
1f
0K
#280000
0$
0e
0f
1K
#285000
1$
1e
1f
0K
#290000
0$
0e
0f
1K
#295000
1$
1e
1f
0K
#300000
0$
0e
0f
1K
#305000
1$
1e
1f
0K
#310000
0$
0e
0f
1K
#315000
1$
1e
1f
0K
#320000
0$
0e
0f
1K
#325000
1$
1e
1f
0K
#330000
0*
0)
0(
0'
02
0$
0I!
02!
00!
0p
0t
0e
0f
1K
0S!
0J!
06!
03!
0'!
0Q"
0v
0R"
0S"
#335000
1$
1e
1f
0K
0T"
0u
#340000
0$
0e
0f
1K
#345000
1$
1e
1f
0K
#350000
0$
0e
0f
1K
#355000
1$
1e
1f
0K
#360000
0$
0e
0f
1K
#365000
1$
1e
1f
0K
#370000
0$
0e
0f
1K
#375000
1$
1e
1f
0K
#380000
0$
0e
0f
1K
#385000
1$
1e
1f
0K
#390000
0$
0e
0f
1K
#395000
1$
1e
1f
0K
#400000
0$
0e
0f
1K
#405000
1$
1e
1f
0K
#410000
0$
0e
0f
1K
#415000
1$
1e
1f
0K
#420000
13
1(
1'
0$
1s
10!
1p
0e
0f
1K
1Q"
1'!
1R"
1S"
#425000
1$
1e
1f
0K
1T"
1u
1~
#430000
0$
0e
0f
1K
#435000
1$
1e
1f
0K
1:!
1(!
1@!
1)!
#440000
0$
0e
0f
1K
#445000
1$
1e
1f
0K
#450000
0$
0e
0f
1K
#455000
1$
1e
1f
0K
#460000
0$
0e
0f
1K
#465000
1$
1e
1f
0K
#470000
0$
0e
0f
1K
#475000
1$
1e
1f
0K
#480000
0$
0e
0f
1K
#485000
1$
1e
1f
0K
#490000
0$
0e
0f
1K
#495000
1$
1e
1f
0K
#500000
0$
0e
0f
1K
#505000
1$
1e
1f
0K
#510000
0$
0e
0f
1K
#515000
1$
1e
1f
0K
#520000
0$
0e
0f
1K
#525000
1$
1e
1f
0K
#530000
0$
0e
0f
1K
#535000
1$
1e
1f
0K
#540000
0$
0e
0f
1K
#545000
1$
1e
1f
0K
#550000
03
0(
0'
0$
0s
00!
0p
0e
0f
1K
0Q"
0~
0'!
0R"
0S"
#555000
1$
1e
1f
0K
0T"
0u
#560000
16
0$
1m
0e
0f
1K
1n
1o
1G"
#565000
1$
1e
1f
0K
1H"
10"
0o
1F"
0G"
1S"
1G"
#570000
0$
0e
0f
1K
#575000
1$
1e
1f
0K
1T"
00"
1-!
1N"
0F"
1P"
15!
1z
1l
1T
1D
1.!
01"
1/!
1W
19
#580000
0$
0e
0f
1K
#585000
1$
1e
1f
0K
1{
1#!
1|
0z
#590000
0$
0e
0f
1K
#595000
1$
1e
1f
0K
1A!
1*!
1}
0{
1>!
0@!
1?!
0.!
1B!
1@!
11"
0/!
0)!
1X
0W
1:
09
0?!
0@!
0X
0:
1C!
18!
1Y
1;
#600000
0$
0e
0f
1K
#605000
1$
1e
1f
0K
0A!
19!
0*!
0B!
1L!
0>!
1?!
0C!
1.!
0L!
1@!
08!
01"
1/!
1)!
1X
0Y
1W
1:
0;
19
1C!
1M!
0?!
18!
07"
0V!
1N!
0@!
1Y
1Z
0X
1;
1<
0:
0M!
08"
0."
17"
1V!
0N!
0Z
0<
0:"
18"
1."
1:"
0;"
0d
0I
1;"
1d
1I
#610000
0$
0e
0f
1K
#615000
1$
1e
1f
0K
1*!
1>!
0.!
11"
0/!
0)!
0W
09
1?!
02"
0D!
1@!
1X
1:
#620000
0$
0e
0f
1K
#625000
1$
1e
1f
0K
1A!
0*!
1B!
0>!
0?!
1.!
1L!
0B!
12"
1D!
0@!
01"
1/!
1)!
0X
1W
0:
19
0C!
1?!
0L!
08!
1@!
0Y
1X
0;
1:
1M!
1C!
07"
0V!
1N!
02"
0D!
18!
1Z
1Y
1<
1;
0M!
08"
0."
03"
17"
1V!
0N!
0Z
0<
0:"
18"
1."
0;"
1/"
1:"
1K"
0G"
0d
1b
0I
1G
0/"
1L"
0K"
1G"
0b
0G
1;"
0L"
1d
1I
#630000
0$
0e
0f
1K
#635000
1$
1e
1f
0K
1*!
1>!
0.!
1B!
11"
0/!
0)!
0W
09
0?!
1L!
13"
12"
1D!
0@!
0X
0:
0C!
08!
0Y
0;
1M!
07"
0V!
1N!
1Z
1<
08"
0."
0:"
#640000
0$
0e
0f
1K
#645000
1$
1e
1f
0K
1O!
0A!
09!
0*!
0B!
0L!
0>!
0M!
1?!
1C!
1.!
17"
1V!
0N!
02"
0D!
1@!
18!
01"
1/!
1)!
0Z
1X
1Y
1W
0<
1:
1;
19
0C!
1M!
0?!
18"
1."
03"
12"
1D!
08!
07"
0V!
1N!
0@!
0Y
1Z
0X
0;
1<
0:
1/"
1:"
13"
08"
0."
1K"
0G"
1b
1G
0;"
0/"
0:"
1L"
0K"
1G"
0d
0b
0I
0G
1;"
0L"
1d
1I
#650000
0$
0e
0f
1K
#655000
1$
1e
1f
0K
1*!
1>!
0.!
11"
0/!
0)!
0W
09
1?!
1@!
1X
1:
#660000
0$
0e
0f
1K
#665000
1$
1e
1f
0K
1A!
0*!
1B!
0>!
0?!
1.!
0B!
0@!
01"
1/!
1)!
0X
1W
0:
19
1C!
1?!
02"
0D!
18!
1@!
1Y
1X
1;
1:
0C!
03"
12"
1D!
08!
0Y
0;
1/"
13"
1K"
0G"
1b
1G
0;"
0/"
1L"
0K"
1G"
0d
0b
0I
0G
1;"
0L"
1d
1I
#670000
0$
0e
0f
1K
#675000
1$
1e
1f
0K
1*!
1>!
0.!
1B!
11"
0/!
0)!
0W
09
0?!
0@!
0X
0:
1C!
18!
1Y
1;
#680000
0$
0e
0f
1K
#685000
1$
1e
1f
0K
0A!
19!
0*!
0B!
1Q!
1L!
0>!
1?!
0C!
1.!
0Q!
0L!
1@!
08!
01"
1/!
1)!
1X
0Y
1W
1:
0;
19
1C!
1R!
0M!
0?!
18!
1@"
1V!
1G!
0N!
0@!
1Y
1[
0Z
0X
1;
1=
0<
0:
0R!
1M!
1B"
1."
0@"
0V!
0G!
1N!
0[
1Z
0=
1<
1D"
0B"
0."
0;"
0D"
0d
0I
1;"
1d
1I
#690000
0$
0e
0f
1K
#695000
1$
1e
1f
0K
1*!
1>!
0.!
11"
0/!
0)!
0W
09
1?!
02"
0D!
1@!
1X
1:
#700000
0$
0e
0f
1K
#705000
1$
1e
1f
0K
1A!
0*!
1B!
0>!
0?!
1.!
1Q!
1L!
0B!
12"
1D!
0@!
01"
1/!
1)!
0X
1W
0:
19
0C!
1?!
0Q!
0L!
08!
1@!
0Y
1X
0;
1:
1R!
0M!
1C!
1@"
1V!
1G!
0N!
02"
0D!
18!
1[
0Z
1Y
1=
0<
1;
0R!
1M!
1B"
1."
03"
0@"
0V!
0G!
1N!
0[
1Z
0=
1<
1/"
1D"
0B"
0."
1K"
0G"
1b
1G
0;"
0/"
0D"
1L"
0K"
1G"
0d
0b
0I
0G
1/"
0L"
1K"
0G"
1b
1G
1L"
#710000
0$
0e
0f
1K
#715000
1$
1e
1f
0K
1M"
0H"
1*!
1R"
0-!
1>!
1U"
0N"
0.!
0>!
1B!
0P"
0K"
05!
1z
0l
11"
0/!
0)!
1R
0T
0W
1F
0D
09
1.!
0?!
0B!
1Q!
1L!
0L"
13"
01"
1/!
1)!
12"
1D!
0@!
1W
0X
19
0:
1?!
0C!
0/"
0Q!
0L!
1@!
08!
1X
0Y
0b
1:
0;
0G
1C!
1R!
0M!
1;"
02"
0D!
18!
1@"
1V!
1G!
0N!
1Y
1[
0Z
1d
1;
1=
0<
1I
0R!
1M!
03"
1B"
1."
0@"
0V!
0G!
1N!
0[
1Z
0=
1<
1/"
1D"
0B"
0."
1b
1G
0;"
0/"
0D"
0d
0b
0I
0G
1/"
1b
1G
#720000
0$
0e
0f
1K
#725000
1$
1e
1f
0K
0M"
1{
0R"
1u
0N!
08!
0#!
0U"
0S"
0R
0F
#730000
0$
0e
0f
1K
#735000
1$
1e
1f
0K
0T"
0u
1o
1G"
#740000
0$
0e
0f
1K
#745000
1$
1e
1f
0K
1H"
10"
0o
1F"
0G"
1S"
1G"
#750000
0$
0e
0f
1K
#755000
1$
1e
1f
0K
1T"
00"
1-!
1N"
0F"
1>!
1P"
1K"
15!
0z
1l
1T
1D
0.!
0G"
1B!
1L"
11"
0/!
0W
09
0?!
1Q!
1L!
13"
12"
1D!
0X
0:
0C!
0/"
0K"
1G"
0Y
0b
0;
0G
1R!
0M!
1;"
0L"
1@"
1V!
1[
0Z
1d
1=
0<
1I
1B"
1."
1D"
0;"
0d
0I
1E"
1c
1H
#760000
0$
0e
0f
1K
#765000
1$
1e
1f
0K
0{
1G!
0@!
0)!
1#!
#770000
0$
0e
0f
1K
#775000
1$
1e
1f
0K
0O!
1H!
0A!
09!
0*!
0Q!
0B!
0L!
0>!
1M!
0R!
1?!
1C!
1.!
0@"
0V!
1N!
0G!
02"
0D!
1@!
18!
01"
1/!
1)!
1Z
0[
1X
1Y
1W
1<
0=
1:
1;
19
1R!
0C!
0M!
0?!
0B"
0."
03"
1@"
1V!
1G!
12"
1D!
08!
0N!
0@!
1[
0Y
0Z
0X
1=
0;
0<
0:
0D"
1B"
1."
13"
0E"
1D"
0c
0H
1E"
1c
1H
#780000
0$
0e
0f
1K
#785000
1$
1e
1f
0K
1*!
1>!
0.!
11"
0/!
0)!
0W
09
1?!
1@!
1X
1:
#790000
0$
0e
0f
1K
#795000
1$
1e
1f
0K
1A!
0*!
1B!
0>!
0?!
1.!
0B!
0@!
01"
1/!
1)!
0X
1W
0:
19
1C!
1?!
02"
0D!
18!
1@!
1Y
1X
1;
1:
0C!
03"
12"
1D!
08!
0Y
0;
13"
#800000
0$
0e
0f
1K
#805000
1$
1e
1f
0K
1*!
1>!
0.!
1B!
11"
0/!
0)!
0W
09
0?!
0@!
0X
0:
1C!
18!
1Y
1;
#810000
0$
0e
0f
1K
#815000
1$
1e
1f
0K
0A!
19!
0*!
0B!
1L!
0>!
1?!
0C!
1.!
0L!
1@!
08!
01"
1/!
1)!
1X
0Y
1W
1:
0;
19
1C!
1M!
0?!
18!
1N!
0@!
1Y
1Z
0X
1;
1<
0:
0M!
0N!
0Z
0<
#820000
0$
0e
0f
1K
#825000
1$
1e
1f
0K
1*!
1>!
0.!
11"
0/!
0)!
0W
09
1?!
02"
0D!
1@!
1X
1:
#830000
0$
0e
0f
1K
#835000
1$
1e
1f
0K
1A!
0*!
1B!
0>!
0?!
1.!
1L!
0B!
12"
1D!
0@!
01"
1/!
1)!
0X
1W
0:
19
0C!
1?!
0L!
08!
1@!
0Y
1X
0;
1:
1M!
1C!
1N!
02"
0D!
18!
1Z
1Y
1<
1;
0M!
03"
0N!
0Z
0<
#840000
0$
0e
0f
1K
#845000
1$
1e
1f
0K
1*!
1>!
0.!
1B!
11"
0/!
0)!
0W
09
0?!
1L!
13"
12"
1D!
0@!
0X
0:
0C!
08!
0Y
0;
1M!
1N!
1Z
1<
#850000
0$
0e
0f
1K
#855000
1$
1e
1f
0K
1O!
0A!
09!
0*!
1b!
0B!
0L!
0>!
0M!
1?!
1C!
1.!
0b!
0N!
02"
0D!
1@!
18!
01"
1/!
1)!
0Z
1X
1Y
1W
0<
1:
1;
19
1c!
0C!
1M!
0?!
03"
1A"
0h!
1d!
12"
1D!
08!
1N!
0@!
1\
0Y
1Z
0X
1>
0;
1<
0:
0c!
14"
13"
0A"
1h!
0d!
0\
0>
0B"
04"
0D"
1B"
1D"
0E"
0c
0H
1E"
1c
1H
#860000
0$
0e
0f
1K
#865000
1$
1e
1f
0K
1*!
1>!
0.!
11"
0/!
0)!
0W
09
1?!
1@!
1X
1:
#870000
0$
0e
0f
1K
#875000
1$
1e
1f
0K
1A!
0*!
1B!
0>!
0?!
1.!
0B!
0@!
01"
1/!
1)!
0X
1W
0:
19
1C!
1?!
02"
0D!
18!
1@!
1Y
1X
1;
1:
0C!
03"
12"
1D!
08!
0Y
0;
13"
#880000
0$
0e
0f
1K
#885000
1$
1e
1f
0K
1*!
1>!
0.!
1B!
11"
0/!
0)!
0W
09
0?!
0@!
0X
0:
1C!
18!
1Y
1;
#890000
0$
0e
0f
1K
#895000
1$
1e
1f
0K
0A!
19!
0*!
0B!
1Q!
1L!
0>!
1?!
0C!
1.!
0Q!
0L!
1b!
1@!
08!
01"
1/!
1)!
1X
0Y
1W
1:
0;
19
1C!
0R!
0M!
0?!
0b!
18!
0@"
17"
0G!
0N!
0@!
1Y
0[
0Z
0X
1;
0=
0<
0:
1R!
1M!
1c!
0B"
18"
1@"
07"
1G!
1N!
1A"
0h!
1d!
1[
1Z
1\
1=
1<
1>
0c!
0D"
1:"
1B"
08"
14"
0A"
1h!
0d!
0\
0>
1D"
0:"
0B"
04"
0E"
1;"
0D"
1B"
0c
1d
0H
1I
1E"
0;"
1D"
1c
0d
1H
0I
0E"
0c
0H
1E"
1c
1H
#900000
0$
0e
0f
1K
#905000
1$
1e
1f
0K
1*!
1>!
0.!
11"
0/!
0)!
0W
09
1?!
02"
0D!
1@!
1X
1:
#910000
0$
0e
0f
1K
#915000
1$
1e
1f
0K
1A!
0*!
1B!
0>!
0?!
1.!
1Q!
1L!
0B!
12"
1D!
0@!
01"
1/!
1)!
0X
1W
0:
19
0C!
1?!
1b!
0Q!
0L!
08!
1@!
0Y
1X
0;
1:
0R!
0M!
1C!
0b!
0@"
17"
0G!
0N!
02"
0D!
18!
0[
0Z
1Y
0=
0<
1;
1c!
1R!
1M!
0B"
18"
03"
1A"
0h!
1d!
1@"
07"
1G!
1N!
1\
1[
1Z
1>
1=
1<
0c!
0D"
1:"
1B"
14"
08"
0A"
1h!
0d!
0\
0>
1D"
0B"
0:"
04"
0E"
1;"
0D"
1B"
0c
1d
0H
1I
1E"
0;"
1D"
1c
0d
1H
0I
0E"
0c
0H
1E"
1c
1H
#920000
0$
0e
0f
1K
