simulation/qsim/IDL_Integrador.msim.vcd
$comment
	File created using the following command:
		vcd file IDL_Integrador.msim.vcd -direction
$end
$date
	Tue Jul 29 16:58:00 2025
$end
$version
	ModelSim Version 10.1d
$end
$timescale
	1ps
$end
$scope module main_vlg_vec_tst $end
$var reg 1 ! b0 $end
$var reg 1 " b1 $end
$var reg 1 # b2 $end
$var reg 1 $ CLK $end
$var reg 1 % Continuar $end
$var reg 1 & Dato0 $end
$var reg 1 ' Dato1 $end
$var reg 1 ( Dato2 $end
$var reg 1 ) Dato3 $end
$var reg 1 * Dato4 $end
$var reg 1 + Dato5 $end
$var reg 1 , Dato6 $end
$var reg 1 - Dato7 $end
$var reg 1 . Dato8 $end
$var reg 1 / Dato9 $end
$var reg 1 0 Dato10 $end
$var reg 1 1 Dato11 $end
$var reg 1 2 LOAD_F $end
$var reg 1 3 LOAD_I $end
$var reg 1 4 Recargar $end
$var reg 1 5 Reset $end
$var reg 1 6 Start $end
$var reg 1 7 updown $end
$var wire 1 8 Ak_out0 $end
$var wire 1 9 Ak_out1 $end
$var wire 1 : Ak_out2 $end
$var wire 1 ; Ak_out3 $end
$var wire 1 < Ak_out4 $end
$var wire 1 = Ak_out5 $end
$var wire 1 > Ak_out6 $end
$var wire 1 ? Ak_out7 $end
$var wire 1 @ Ak_out8 $end
$var wire 1 A Ak_out9 $end
$var wire 1 B Ak_out10 $end
$var wire 1 C Ak_out11 $end
$var wire 1 D ENABLE_COUNT $end
$var wire 1 E ERROR $end
$var wire 1 F FIN $end
$var wire 1 G igual $end
$var wire 1 H mayor $end
$var wire 1 I menor $end
$var wire 1 J PAUSA $end
$var wire 1 K sampler $end
$scope module i1 $end
$var wire 1 L gnd $end
$var wire 1 M vcc $end
$var wire 1 N unknown $end
$var tri1 1 O devclrn $end
$var tri1 1 P devpor $end
$var tri1 1 Q devoe $end
$var wire 1 R FIN~output_o $end
$var wire 1 S PAUSA~output_o $end
$var wire 1 T ENABLE_COUNT~output_o $end
$var wire 1 U ERROR~output_o $end
$var wire 1 V Ak_out0~output_o $end
$var wire 1 W Ak_out1~output_o $end
$var wire 1 X Ak_out2~output_o $end
$var wire 1 Y Ak_out3~output_o $end
$var wire 1 Z Ak_out4~output_o $end
$var wire 1 [ Ak_out5~output_o $end
$var wire 1 \ Ak_out6~output_o $end
$var wire 1 ] Ak_out7~output_o $end
$var wire 1 ^ Ak_out8~output_o $end
$var wire 1 _ Ak_out9~output_o $end
$var wire 1 ` Ak_out10~output_o $end
$var wire 1 a Ak_out11~output_o $end
$var wire 1 b igual~output_o $end
$var wire 1 c mayor~output_o $end
$var wire 1 d menor~output_o $end
$var wire 1 e CLK~input_o $end
$var wire 1 f CLK~inputclkctrl_outclk $end
$var wire 1 g Start~input_o $end
$var wire 1 h Recargar~input_o $end
$var wire 1 i Continuar~input_o $end
$var wire 1 j b0~input_o $end
$var wire 1 k b1~input_o $end
$var wire 1 l b2~input_o $end
$var wire 1 m Inc|inst|inst3~combout $end
$var wire 1 n inst2|inst10|inst~1_combout $end
$var wire 1 o inst2|inst12~0_combout $end
$var wire 1 p Dato3~input_o $end
$var wire 1 q Reset~input_o $end
$var wire 1 r Reset~inputclkctrl_outclk $end
$var wire 1 s LOAD_F~input_o $end
$var wire 1 t LOAD_I~input_o $end
$var wire 1 u inst|inst4~0_combout $end
$var wire 1 v inst|inst5~0_combout $end
$var wire 1 w inst|V_F|inst10~q $end
$var wire 1 x Dato2~input_o $end
$var wire 1 y inst|V_F|inst11~q $end
$var wire 1 z updown~input_o $end
$var wire 1 { Inc|inst|inst6~0_combout $end
$var wire 1 | Inc|inst2|inst2~0_combout $end
$var wire 1 } Inc|inst2|inst6~q $end
$var wire 1 ~ Inc|inst2|inst1~combout $end
$var wire 1 !! Inc|inst2|inst7~q $end
$var wire 1 "! inst|inst4~1_combout $end
$var wire 1 #! inst|V_I|inst11~q $end
$var wire 1 $! Inc|inst3|LPM_MUX_component|auto_generated|result_node[2]~1_combout $end
$var wire 1 %! Inc|inst2|inst9~0_combout $end
$var wire 1 &! Inc|inst1|inst11~q $end
$var wire 1 '! Inc|inst|inst17~0_combout $end
$var wire 1 (! Dato0~input_o $end
$var wire 1 )! inst|V_I|inst12~q $end
$var wire 1 *! Inc|inst7|inst|inst10~combout $end
$var wire 1 +! Inc|inst3|LPM_MUX_component|auto_generated|result_node[0]~2_combout $end
$var wire 1 ,! Inc|inst1|inst12~q $end
$var wire 1 -! Dato1~input_o $end
$var wire 1 .! inst|V_I|inst13~q $end
$var wire 1 /! Inc|inst7|inst1|inst3|inst10~combout $end
$var wire 1 0! Inc|inst3|LPM_MUX_component|auto_generated|result_node[1]~3_combout $end
$var wire 1 1! Inc|inst1|inst13~q $end
$var wire 1 2! Inc|inst7|inst1|inst5~0_combout $end
$var wire 1 3! Inc|inst7|inst2|inst3|inst10~combout $end
$var wire 1 4! Inc|inst|inst~combout $end
$var wire 1 5! inst|V_I|inst10~q $end
$var wire 1 6! Inc|inst3|LPM_MUX_component|auto_generated|result_node[3]~4_combout $end
$var wire 1 7! Inc|inst1|inst10~q $end
$var wire 1 8! Inc|inst7|inst2|inst5~0_combout $end
$var wire 1 9! Inc|inst7|inst3|inst3|inst10~combout $end
$var wire 1 :! inst1|inst1|inst1|inst21~combout $end
$var wire 1 ;! inst|V_F|inst13~q $end
$var wire 1 <! inst|V_F|inst12~q $end
$var wire 1 =! inst1|inst7~0_combout $end
$var wire 1 >! Dato5~input_o $end
$var wire 1 ?! inst|V_I|inst8~feeder_combout $end
$var wire 1 @! inst|V_I|inst8~q $end
$var wire 1 A! Inc|inst3|LPM_MUX_component|auto_generated|result_node[5]~6_combout $end
$var wire 1 B! Inc|inst1|inst8~q $end
$var wire 1 C! Dato4~input_o $end
$var wire 1 D! inst|V_I|inst9~q $end
$var wire 1 E! Inc|inst7|inst3|inst5~0_combout $end
$var wire 1 F! Inc|inst7|inst4|inst3|inst10~combout $end
$var wire 1 G! Inc|inst3|LPM_MUX_component|auto_generated|result_node[4]~5_combout $end
$var wire 1 H! Inc|inst1|inst9~q $end
$var wire 1 I! Inc|inst7|inst4|inst5~0_combout $end
$var wire 1 J! Inc|inst7|inst5|inst3|inst10~combout $end
$var wire 1 K! inst|V_F|inst9~q $end
$var wire 1 L! inst|V_F|inst8~q $end
$var wire 1 M! inst1|inst|inst7~1_combout $end
$var wire 1 N! Dato7~input_o $end
$var wire 1 O! inst|V_F|inst6~q $end
$var wire 1 P! Dato6~input_o $end
$var wire 1 Q! inst|V_I|inst7~q $end
$var wire 1 R! Inc|inst3|LPM_MUX_component|auto_generated|result_node[6]~0_combout $end
$var wire 1 S! Inc|inst1|inst7~q $end
$var wire 1 T! Inc|inst7|inst5|inst5~0_combout $end
$var wire 1 U! Inc|inst7|inst6|inst3|inst10~combout $end
$var wire 1 V! inst|V_F|inst7~q $end
$var wire 1 W! inst|V_I|inst6~q $end
$var wire 1 X! Inc|inst3|LPM_MUX_component|auto_generated|result_node[7]~7_combout $end
$var wire 1 Y! Inc|inst1|inst6~q $end
$var wire 1 Z! Inc|inst7|inst6|inst5~0_combout $end
$var wire 1 [! Inc|inst7|inst7|inst3|inst10~combout $end
$var wire 1 \! inst1|inst|inst7~0_combout $end
$var wire 1 ]! Inc|inst7|inst7|inst5~0_combout $end
$var wire 1 ^! Inc|inst7|inst8|inst3|inst10~combout $end
$var wire 1 _! Dato8~input_o $end
$var wire 1 `! inst|V_I|inst5~q $end
$var wire 1 a! Inc|inst3|LPM_MUX_component|auto_generated|result_node[8]~9_combout $end
$var wire 1 b! Inc|inst1|inst5~q $end
$var wire 1 c! Dato9~input_o $end
$var wire 1 d! inst|V_I|inst4~q $end
$var wire 1 e! Inc|inst7|inst8|inst5~0_combout $end
$var wire 1 f! Inc|inst7|inst9|inst3|inst10~combout $end
$var wire 1 g! Inc|inst3|LPM_MUX_component|auto_generated|result_node[9]~10_combout $end
$var wire 1 h! Inc|inst1|inst4~q $end
$var wire 1 i! Inc|inst7|inst9|inst5~0_combout $end
$var wire 1 j! Inc|inst7|inst10|inst3|inst10~combout $end
$var wire 1 k! Dato10~input_o $end
$var wire 1 l! inst|V_I|inst3~feeder_combout $end
$var wire 1 m! inst|V_I|inst3~q $end
$var wire 1 n! Inc|inst3|LPM_MUX_component|auto_generated|result_node[10]~11_combout $end
$var wire 1 o! Inc|inst1|inst3~q $end
$var wire 1 p! inst|V_F|inst3~q $end
$var wire 1 q! inst1|inst|inst1|inst1|inst20~combout $end
$var wire 1 r! inst|V_F|inst5~q $end
$var wire 1 s! inst|V_F|inst4~q $end
$var wire 1 t! inst1|inst13~0_combout $end
$var wire 1 u! Dato11~input_o $end
$var wire 1 v! inst|V_I|inst~q $end
$var wire 1 w! Inc|inst7|inst10|inst5~0_combout $end
$var wire 1 x! Inc|inst7|inst11|inst3|inst10~combout $end
$var wire 1 y! Inc|inst3|LPM_MUX_component|auto_generated|result_node[11]~8_combout $end
$var wire 1 z! Inc|inst1|inst~q $end
$var wire 1 {! inst|V_F|inst~q $end
$var wire 1 |! inst1|inst|inst1|inst1|inst19~combout $end
$var wire 1 }! inst1|inst|inst1|inst7~combout $end
$var wire 1 ~! inst1|inst|inst7~2_combout $end
$var wire 1 !" inst1|inst7~combout $end
$var wire 1 "" inst2|inst10|inst~0_combout $end
$var wire 1 #" inst2|inst10|inst~2_combout $end
$var wire 1 $" inst2|inst5~q $end
$var wire 1 %" inst2|inst9|inst2~0_combout $end
$var wire 1 &" inst2|inst9|inst2~1_combout $end
$var wire 1 '" inst2|inst9|inst6~0_combout $end
$var wire 1 (" inst2|inst14~0_combout $end
$var wire 1 )" inst1|inst13~6_combout $end
$var wire 1 *" inst1|inst13~4_combout $end
$var wire 1 +" inst1|inst13~5_combout $end
$var wire 1 ," inst1|inst|inst|inst1|inst11~0_combout $end
$var wire 1 -" inst1|inst13~1_combout $end
$var wire 1 ." inst1|inst|inst1|inst|inst11~0_combout $end
$var wire 1 /" inst1|inst|inst|inst|inst11~0_combout $end
$var wire 1 0" inst1|inst13~2_combout $end
$var wire 1 1" inst1|inst|inst1|inst1|inst11~0_combout $end
$var wire 1 2" inst1|inst13~3_combout $end
$var wire 1 3" inst1|inst13~7_combout $end
$var wire 1 4" inst1|inst15~1_combout $end
$var wire 1 5" inst1|inst15~0_combout $end
$var wire 1 6" inst1|inst15~2_combout $end
$var wire 1 7" inst1|inst|inst1|inst|a~0_combout $end
$var wire 1 8" inst1|inst15~3_combout $end
$var wire 1 9" inst1|inst15~4_combout $end
$var wire 1 :" inst1|inst15~5_combout $end
$var wire 1 ;" inst1|inst15~6_combout $end
$var wire 1 <" inst1|inst|inst1|inst1|a~0_combout $end
$var wire 1 =" inst1|inst15~7_combout $end
$var wire 1 >" inst1|inst15~8_combout $end
$var wire 1 ?" inst2|inst8|inst4~combout $end
$var wire 1 @" inst2|inst9|inst2~2_combout $end
$var wire 1 A" inst2|inst6~q $end
$var wire 1 B" inst2|inst8|inst2~1_combout $end
$var wire 1 C" inst2|inst8|inst2~2_combout $end
$var wire 1 D" inst2|inst13~combout $end
$var wire 1 E" inst2|inst8|inst2~0_combout $end
$var wire 1 F" inst2|inst8|inst2~3_combout $end
$var wire 1 G" inst2|inst7~q $end
$var wire 1 H" inst2|inst22~combout $end
$var wire 1 I" inst2|inst14~combout $end
$upscope $end
$upscope $end
$enddefinitions $end
#0
$dumpvars
0!
1"
0#
0$
0%
0&
0'
0(
0)
0*
0+
0,
0-
0.
0/
00
01
02
03
04
05
06
07
08
19
0:
0;
0<
0=
0>
0?
0@
0A
0B
0C
0D
0E
0F
0G
1H
0I
0J
xK
0L
1M
xN
1O
1P
1Q
0R
0S
0T
0U
0V
1W
0X
0Y
0Z
0[
0\
0]
0^
0_
0`
0a
0b
1c
0d
0e
0f
0g
0h
0i
0j
1k
0l
1m
0n
0o
0p
0q
0r
0s
0t
0u
0v
0w
0x
0y
0z
0{
0|
0}
0~
0!!
0"!
0#!
0$!
0%!
0&!
1'!
0(!
0)!
0*!
0+!
0,!
0-!
0.!
1/!
00!
01!
02!
03!
04!
05!
06!
07!
08!
09!
0:!
0;!
0<!
0=!
0>!
0?!
0@!
0A!
0B!
0C!
0D!
0E!
0F!
0G!
0H!
0I!
0J!
0K!
0L!
1M!
0N!
0O!
0P!
0Q!
0R!
0S!
0T!
0U!
0V!
0W!
0X!
0Y!
0Z!
0[!
1\!
0]!
0^!
0_!
0`!
0a!
0b!
0c!
0d!
0e!
0f!
0g!
0h!
0i!
0j!
0k!
0l!
0m!
0n!
0o!
0p!
0q!
0r!
0s!
1t!
0u!
0v!
0w!
0x!
0y!
0z!
0{!
0|!
0}!
1~!
0!"
0""
0#"
0$"
0%"
0&"
0'"
0("
0)"
0*"
0+"
0,"
0-"
0."
0/"
00"
01"
02"
03"
14"
05"
16"
07"
08"
09"
0:"
0;"
0<"
0="
1>"
0?"
0@"
0A"
0B"
0C"
0D"
0E"
0F"
0G"
0H"
0I"
$end
#5000
1$
1e
1f
0K
#10000
13
15
0$
1t
1q
0e
1r
0f
1K
1B"
1C"
1F"
#15000
1$
1e
1f
0K
1G"
1u
1n
1"!
#20000
0$
0e
0f
1K
#25000
1$
1e
1f
0K
#30000
0$
0e
0f
1K
#35000
1$
1e
1f
0K
#40000
12
03
0$
1s
0t
0e
0f
1K
0"!
1v
#45000
1$
1e
1f
0K
#50000
0$
0e
0f
1K
#55000
1$
1e
1f
0K
#60000
1*
1'
0$
1C!
1-!
0e
0f
1K
#65000
1$
1e
1f
0K
1K!
1;!
1/"
0M!
04"
1=!
10"
0~!
06"
1!"
12"
1b
1G
0>"
0!"
0c
0b
0H
0G
13"
1d
1I
#70000
0$
0e
0f
1K
#75000
1$
1e
1f
0K
#80000
0$
0e
0f
1K
#85000
1$
1e
1f
0K
#90000
0$
0e
0f
1K
#95000
1$
1e
1f
0K
#100000
02
0*
0'
0$
0s
0C!
0-!
0e
0f
1K
0B"
0v
0C"
0F"
#105000
1$
1e
1f
0K
0G"
0u
0n
#110000
0$
0e
0f
1K
#115000
1$
1e
1f
0K
#120000
0$
0e
0f
1K
#125000
1$
1e
1f
0K
#130000
0$
0e
0f
1K
#135000
1$
1e
1f
0K
#140000
0$
0e
0f
1K
#145000
1$
1e
1f
0K
#150000
16
0$
1g
0e
0f
1K
1%"
1&"
1@"
#155000
1$
1e
1f
0K
1A"
1("
0&"
1?"
0@"
1F"
1@"
#160000
0$
0e
0f
1K
#165000
1$
1e
1f
0K
1G"
0("
1n
1o
0?"
1E"
1'"
1~
1T
1D
#170000
0$
0e
0f
1K
#175000
1$
1e
1f
0K
1!!
1%!
0~
1|
#180000
0$
0e
0f
1K
#185000
1$
1e
1f
0K
0!!
1}
10!
#190000
0$
0e
0f
1K
#195000
1$
1e
1f
0K
11!
12!
0/!
1+"
0=!
00!
0W
09
13!
15"
1:!
1$!
1X
1:
16"
0+"
#200000
0$
0e
0f
1K
#205000
1$
1e
1f
0K
01!
1&!
02!
18!
1/!
03!
08!
1=!
10!
05"
0:!
0$!
1W
0X
19
0:
13!
19!
06"
15"
1:!
1$!
16!
1X
1Y
1:
1;
09!
16"
06!
0Y
0;
#210000
0$
0e
0f
1K
#215000
1$
1e
1f
0K
11!
12!
0/!
18!
0=!
00!
0W
09
03!
05"
0:!
0$!
0X
0:
19!
06"
1+"
15"
1:!
16!
1Y
1;
16"
0+"
#220000
0$
0e
0f
1K
#225000
1$
1e
1f
0K
17!
01!
0&!
1E!
02!
08!
09!
1/!
13!
0E!
06!
1=!
10!
1$!
0Y
1W
1X
0;
19
1:
1F!
03!
19!
0/"
1M!
1G!
0$!
16!
1Z
0X
1Y
1<
0:
1;
0F!
00"
1~!
1/"
0M!
0G!
0Z
0<
02"
10"
0~!
1>"
03"
12"
1c
0d
1H
0I
0>"
0c
0H
13"
1d
1I
#230000
0$
0e
0f
1K
#235000
1$
1e
1f
0K
11!
12!
0/!
0=!
00!
0W
09
13!
1$!
1X
1:
#240000
0$
0e
0f
1K
#245000
1$
1e
1f
0K
01!
1&!
02!
18!
1/!
03!
08!
1E!
1=!
10!
0$!
1W
0X
19
0:
13!
09!
0E!
1$!
06!
1X
0Y
1:
0;
19!
1F!
16!
0/"
1M!
1G!
1Y
1Z
1;
1<
0F!
00"
1~!
1/"
0M!
0G!
0Z
0<
02"
10"
0~!
1>"
03"
12"
1c
0d
1H
0I
0>"
0c
0H
13"
1d
1I
#250000
0$
0e
0f
1K
#255000
1$
1e
1f
0K
11!
12!
0/!
18!
0=!
00!
0W
09
03!
1E!
0$!
0X
0:
09!
05"
0:!
06!
0Y
0;
1F!
06"
1+"
0/"
1M!
1G!
1Z
1<
00"
1~!
02"
#260000
0$
0e
0f
1K
#265000
1$
1e
1f
0K
1H!
07!
01!
0&!
0E!
02!
08!
0F!
19!
1/!
13!
1/"
0M!
0G!
15"
1:!
16!
0+"
1=!
10!
1$!
0Z
1Y
1W
1X
0<
1;
19
1:
1F!
03!
09!
10"
0~!
16"
0/"
1M!
1G!
05"
0:!
0$!
06!
1Z
0X
0Y
1<
0:
0;
03"
12"
00"
1~!
06"
0d
0I
02"
1!"
0@"
1""
1b
1G
1#"
#270000
0$
0e
0f
1K
#275000
1$
1e
1f
0K
0A"
1$"
11!
12!
1H"
0o
0/!
0E"
0'"
0""
1~
1+"
0=!
00!
1R
0T
0W
1F
0D
09
13!
0F"
15"
1:!
1$!
1X
1:
13"
0!"
16"
0+"
1d
0b
1I
0G
1>"
03"
1c
0d
1H
0I
#280000
0$
0e
0f
1K
#285000
1$
1e
1f
0K
0G"
01!
1&!
1!!
1&"
0n
02!
18!
0G!
0%!
0$!
0H"
1D"
1/!
03!
1@"
0#"
08!
1E"
1=!
05"
0:!
0R
1S
1W
0X
0F
1J
19
0:
13!
19!
1F"
06"
15"
1:!
1X
1Y
1:
1;
09!
1!"
16"
0Y
1b
0;
1G
0>"
0!"
0c
0b
0H
0G
1>"
1c
1H
#290000
0$
0e
0f
1K
#295000
1$
1e
1f
0K
1G"
1A"
0$"
0&"
1n
0D"
1o
0@"
1'"
0~
0S
1T
0J
1D
1@"
#300000
0$
0e
0f
1K
#305000
1$
1e
1f
0K
0!!
1G!
10!
1%!
1$!
#310000
0$
0e
0f
1K
#315000
1$
1e
1f
0K
11!
12!
0/!
18!
0=!
00!
0W
09
03!
05"
0:!
0$!
0X
0:
19!
06"
1+"
15"
1:!
16!
1Y
1;
16"
0+"
0>"
13"
0c
1d
0H
1I
1>"
03"
1c
0d
1H
0I
#320000
0$
0e
0f
1K
#325000
1$
1e
1f
0K
17!
01!
0&!
1I!
1E!
02!
08!
09!
1/!
13!
0I!
0E!
06!
1=!
10!
1$!
0Y
1W
1X
0;
19
1:
1J!
0F!
03!
19!
18"
0M!
1A!
0G!
0$!
16!
1[
0Z
0X
1Y
1=
0<
0:
1;
0J!
1F!
1:"
0~!
08"
1M!
0A!
1G!
0[
1Z
0=
1<
1;"
0:"
1~!
0>"
1="
0;"
0c
0H
1>"
0="
1c
1H
#330000
0$
0e
0f
1K
#335000
1$
1e
1f
0K
11!
12!
0/!
0=!
00!
0W
09
13!
1$!
1X
1:
#340000
0$
0e
0f
1K
#345000
1$
1e
1f
0K
01!
1&!
02!
18!
1/!
03!
08!
1I!
1E!
1=!
10!
0$!
1W
0X
19
0:
13!
09!
0I!
0E!
1$!
06!
1X
0Y
1:
0;
19!
1J!
0F!
16!
18"
0M!
1A!
0G!
1Y
1[
0Z
1;
1=
0<
0J!
1F!
1:"
0~!
08"
1M!
0A!
1G!
0[
1Z
0=
1<
1;"
0:"
1~!
0>"
1="
0;"
0c
0H
1>"
0="
1c
1H
#350000
0$
0e
0f
1K
#355000
1$
1e
1f
0K
11!
12!
0/!
18!
0=!
00!
0W
09
03!
1I!
1E!
0$!
0X
0:
09!
05"
0:!
06!
0Y
0;
1J!
0F!
06"
1+"
18"
0M!
1A!
0G!
1[
0Z
1=
0<
1:"
0~!
0>"
13"
1;"
0c
1d
0H
1I
03"
1="
0d
0I
1>"
1c
1H
#360000
0$
0e
0f
1K
#365000
1$
1e
1f
0K
0H!
1B!
07!
01!
0&!
0I!
0E!
02!
08!
1F!
0J!
19!
1/!
13!
08"
1M!
1G!
0A!
15"
1:!
16!
0+"
1=!
10!
1$!
1Z
0[
1Y
1W
1X
1<
0=
1;
19
1:
1J!
0F!
03!
09!
0:"
1~!
16"
18"
0M!
1A!
0G!
05"
0:!
0$!
06!
1[
0Z
0X
0Y
1=
0<
0:
0;
0;"
1:"
0~!
06"
1!"
0="
1;"
0@"
1""
1b
1G
0!"
1="
1#"
1@"
0""
0b
0G
0>"
0#"
0c
0H
1>"
1c
1H
#370000
0$
0e
0f
1K
#375000
1$
1e
1f
0K
11!
12!
0/!
1+"
0=!
00!
0W
09
13!
15"
1:!
1$!
1X
1:
16"
0+"
#380000
0$
0e
0f
1K
#385000
1$
1e
1f
0K
01!
1&!
02!
18!
1/!
03!
08!
1=!
10!
05"
0:!
0$!
1W
0X
19
0:
13!
19!
06"
15"
1:!
1$!
16!
1X
1Y
1:
1;
09!
16"
06!
0Y
0;
#390000
0$
0e
0f
1K
#395000
1$
1e
1f
0K
11!
12!
0/!
18!
0=!
00!
0W
09
03!
05"
0:!
0$!
0X
0:
19!
06"
1+"
15"
1:!
16!
1Y
1;
16"
0+"
#400000
0$
0e
0f
1K
#405000
1$
1e
1f
0K
17!
01!
0&!
1E!
02!
08!
09!
1/!
13!
0E!
06!
1=!
10!
1$!
0Y
1W
1X
0;
19
1:
1F!
03!
19!
1G!
0$!
16!
1Z
0X
1Y
1<
0:
1;
0F!
0G!
0Z
0<
#410000
0$
0e
0f
1K
#415000
1$
1e
1f
0K
11!
12!
0/!
0=!
00!
0W
09
13!
1$!
1X
1:
#420000
0$
0e
0f
1K
#425000
1$
1e
1f
0K
01!
1&!
02!
18!
1/!
03!
08!
1E!
1=!
10!
0$!
1W
0X
19
0:
13!
09!
0E!
1$!
06!
1X
0Y
1:
0;
19!
1F!
16!
1G!
1Y
1Z
1;
1<
0F!
0G!
0Z
0<
#430000
0$
0e
0f
1K
#435000
1$
1e
1f
0K
11!
12!
0/!
18!
0=!
00!
0W
09
03!
1E!
0$!
0X
0:
09!
05"
0:!
06!
0Y
0;
1F!
06"
1+"
1G!
1Z
1<
#440000
0$
0e
0f
1K
#445000
1$
1e
1f
0K
1H!
07!
01!
0&!
1T!
0E!
02!
08!
0F!
19!
1/!
13!
0T!
0G!
15"
1:!
16!
0+"
1=!
10!
1$!
0Z
1Y
1W
1X
0<
1;
19
1:
1U!
1F!
03!
09!
16"
19"
0\!
1R!
1G!
05"
0:!
0$!
06!
1\
1Z
0X
0Y
1>
1<
0:
0;
0U!
1-"
06"
09"
1\!
0R!
0\
0>
0-"
#450000
0$
0e
0f
1K
#455000
1$
1e
1f
0K
11!
12!
0/!
1+"
0=!
00!
0W
09
13!
15"
1:!
1$!
1X
1:
16"
0+"
#460000
0$
0e
0f
1K
#465000
1$
1e
1f
0K
01!
1&!
02!
18!
1/!
03!
08!
1=!
10!
05"
0:!
0$!
1W
0X
19
0:
13!
19!
06"
15"
1:!
1$!
16!
1X
1Y
1:
1;
09!
16"
06!
0Y
0;
#470000
0$
0e
0f
1K
#475000
1$
1e
1f
0K
11!
12!
0/!
18!
0=!
00!
0W
09
03!
05"
0:!
0$!
0X
0:
19!
06"
1+"
15"
1:!
16!
1Y
1;
16"
0+"
#480000
0$
0e
0f
1K
#485000
1$
1e
1f
0K
17!
01!
0&!
1I!
1E!
02!
08!
09!
1/!
13!
1T!
0I!
0E!
06!
1=!
10!
1$!
0Y
1W
1X
0;
19
1:
0J!
0F!
03!
19!
0T!
08"
1/"
0A!
0G!
0$!
16!
0[
0Z
0X
1Y
0=
0<
0:
1;
1U!
1J!
1F!
0:"
10"
19"
0\!
1R!
18"
0/"
1A!
1G!
1\
1[
1Z
1>
1=
1<
0U!
0;"
12"
1:"
1-"
00"
09"
1\!
0R!
0\
0>
0="
1;"
02"
0-"
13"
1="
1d
1I
0>"
03"
0c
0d
0H
0I
1>"
1c
1H
#490000
0$
0e
0f
1K
#495000
1$
1e
1f
0K
11!
12!
0/!
0=!
00!
0W
09
13!
1$!
1X
1:
#500000
0$
0e
0f
1K
#505000
1$
1e
1f
0K
01!
1&!
02!
18!
1/!
03!
08!
1I!
1E!
1=!
10!
0$!
1W
0X
19
0:
13!
09!
0I!
0E!
1T!
1$!
06!
1X
0Y
1:
0;
19!
0J!
0F!
0T!
16!
08"
1/"
0A!
0G!
1Y
0[
0Z
1;
0=
0<
1J!
1F!
1U!
0:"
10"
18"
0/"
1A!
1G!
19"
0\!
1R!
1[
1Z
1\
1=
1<
1>
0U!
0;"
12"
1:"
00"
1-"
09"
1\!
0R!
0\
0>
0="
1;"
02"
0-"
13"
1="
1d
1I
0>"
03"
0c
0d
0H
0I
1>"
1c
1H
#510000
0$
0e
0f
1K
#515000
1$
1e
1f
0K
11!
12!
0/!
18!
0=!
00!
0W
09
03!
1I!
1E!
0$!
0X
0:
09!
1T!
05"
0:!
06!
0Y
0;
0J!
0F!
06"
1+"
08"
1/"
0A!
0G!
0[
0Z
0=
0<
1U!
0:"
10"
19"
0\!
1R!
1\
1>
0;"
12"
1:"
1-"
0="
1;"
02"
00"
13"
1="
1d
1I
0>"
03"
0c
0d
0H
0I
1>"
1c
1H
#520000
0$
0e
0f
1K
#525000
1$
1e
1f
0K
1S!
0H!
0B!
07!
01!
0&!
0T!
0I!
0E!
02!
08!
0U!
1F!
1J!
19!
1/!
13!
09"
1\!
0R!
18"
0/"
1G!
1A!
15"
1:!
16!
0+"
1=!
10!
1$!
0\
1Z
1[
1Y
1W
1X
0>
1<
1=
1;
19
1:
1U!
0J!
0F!
03!
09!
0-"
16"
19"
0\!
1R!
08"
1/"
0A!
0G!
05"
0:!
0$!
06!
1\
0[
0Z
0X
0Y
1>
0=
0<
0:
0;
10"
1-"
06"
00"
#530000
0$
0e
0f
1K
#535000
1$
1e
1f
0K
11!
12!
0/!
1+"
0=!
00!
0W
09
13!
15"
1:!
1$!
1X
1:
16"
0+"
#540000
0$
0e
0f
1K
#545000
1$
1e
1f
0K
01!
1&!
02!
18!
1/!
03!
08!
1=!
10!
05"
0:!
0$!
1W
0X
19
0:
13!
19!
06"
15"
1:!
1$!
16!
1X
1Y
1:
1;
09!
16"
06!
0Y
0;
#550000
0$
0e
0f
1K
#555000
1$
1e
1f
0K
11!
12!
0/!
18!
0=!
00!
0W
09
03!
05"
0:!
0$!
0X
0:
19!
06"
1+"
15"
1:!
16!
1Y
1;
16"
0+"
#560000
0$
0e
0f
1K
#565000
1$
1e
1f
0K
17!
01!
0&!
1E!
02!
08!
09!
1/!
13!
0E!
06!
1=!
10!
1$!
0Y
1W
1X
0;
19
1:
1F!
03!
19!
0/"
1M!
1G!
0$!
16!
1Z
0X
1Y
1<
0:
1;
0F!
1/"
0M!
0G!
0Z
0<
#570000
0$
0e
0f
1K
#575000
1$
1e
1f
0K
11!
12!
0/!
0=!
00!
0W
09
13!
1$!
1X
1:
#580000
0$
0e
0f
1K
#585000
1$
1e
1f
0K
01!
1&!
02!
18!
1/!
03!
08!
1E!
1=!
10!
0$!
1W
0X
19
0:
13!
09!
0E!
1$!
06!
1X
0Y
1:
0;
19!
1F!
16!
0/"
1M!
1G!
1Y
1Z
1;
1<
0F!
1/"
0M!
0G!
0Z
0<
#590000
0$
0e
0f
1K
#595000
1$
1e
1f
0K
11!
12!
0/!
18!
0=!
00!
0W
09
03!
1E!
0$!
0X
0:
09!
05"
0:!
06!
0Y
0;
1F!
06"
1+"
0/"
1M!
1G!
1Z
1<
#600000
0$
0e
0f
1K
#605000
1$
1e
1f
0K
1H!
07!
01!
0&!
0E!
02!
08!
0F!
19!
1/!
13!
1/"
0M!
0G!
15"
1:!
16!
0+"
1=!
10!
1$!
0Z
1Y
1W
1X
0<
1;
19
1:
1F!
03!
09!
16"
0/"
1M!
1G!
05"
0:!
0$!
06!
1Z
0X
0Y
1<
0:
0;
06"
#610000
0$
0e
0f
1K
#615000
1$
1e
1f
0K
11!
12!
0/!
1+"
0=!
00!
0W
09
13!
15"
1:!
1$!
1X
1:
16"
0+"
#620000
0$
0e
0f
1K
#625000
1$
1e
1f
0K
01!
1&!
02!
18!
1/!
03!
08!
1=!
10!
05"
0:!
0$!
1W
0X
19
0:
13!
19!
06"
15"
1:!
1$!
16!
1X
1Y
1:
1;
09!
16"
06!
0Y
0;
#630000
0$
0e
0f
1K
#635000
1$
1e
1f
0K
11!
12!
0/!
18!
0=!
00!
0W
09
03!
05"
0:!
0$!
0X
0:
19!
06"
1+"
15"
1:!
16!
1Y
1;
16"
0+"
#640000
0$
0e
0f
1K
#645000
1$
1e
1f
0K
17!
01!
0&!
1I!
1E!
02!
08!
09!
1/!
13!
0I!
0E!
06!
1=!
10!
1$!
0Y
1W
1X
0;
19
1:
1J!
0F!
03!
19!
18"
0M!
1A!
0G!
0$!
16!
1[
0Z
0X
1Y
1=
0<
0:
1;
0J!
1F!
08"
1M!
0A!
1G!
0[
1Z
0=
1<
#650000
0$
0e
0f
1K
#655000
1$
1e
1f
0K
11!
12!
0/!
0=!
00!
0W
09
13!
1$!
1X
1:
#660000
0$
0e
0f
1K
#665000
1$
1e
1f
0K
01!
1&!
02!
18!
1/!
03!
08!
1I!
1E!
1=!
10!
0$!
1W
0X
19
0:
13!
09!
0I!
0E!
1$!
06!
1X
0Y
1:
0;
19!
1J!
0F!
16!
18"
0M!
1A!
0G!
1Y
1[
0Z
1;
1=
0<
0J!
1F!
08"
1M!
0A!
1G!
0[
1Z
0=
1<
#670000
0$
0e
0f
1K
