simulation/qsim/IDL_Integrador.msim.vcd
$comment
	File created using the following command:
		vcd file IDL_Integrador.msim.vcd -direction
$end
$date
	Sun Jul 27 13:07:09 2025
$end
$version
	ModelSim Version 10.1d
$end
$timescale
	1ps
$end
$scope module Incrementador_vlg_vec_tst $end
$var reg 1 ! ActivarConteo $end
$var reg 1 " b0 $end
$var reg 1 # b1 $end
$var reg 1 $ b2 $end
$var reg 1 % ClockIn $end
$var reg 1 & Data0 $end
$var reg 1 ' data1 $end
$var reg 1 ( data2 $end
$var reg 1 ) data3 $end
$var reg 1 * data4 $end
$var reg 1 + data5 $end
$var reg 1 , data6 $end
$var reg 1 - data7 $end
$var reg 1 . data8 $end
$var reg 1 / data9 $end
$var reg 1 0 data10 $end
$var reg 1 1 data11 $end
$var reg 1 2 ResetFFIn $end
$var wire 1 3 CarryFinal $end
$var wire 1 4 ou0 $end
$var wire 1 5 ou1 $end
$var wire 1 6 ou2 $end
$var wire 1 7 ou3 $end
$var wire 1 8 ou4 $end
$var wire 1 9 ou5 $end
$var wire 1 : ou6 $end
$var wire 1 ; ou7 $end
$var wire 1 < ou8 $end
$var wire 1 = ou9 $end
$var wire 1 > ou10 $end
$var wire 1 ? ou11 $end
$var wire 1 @ sampler $end
$scope module i1 $end
$var wire 1 A gnd $end
$var wire 1 B vcc $end
$var wire 1 C unknown $end
$var tri1 1 D devclrn $end
$var tri1 1 E devpor $end
$var tri1 1 F devoe $end
$var wire 1 G b0~input_o $end
$var wire 1 H ActivarConteo~input_o $end
$var wire 1 I ClockIn~input_o $end
$var wire 1 J ResetFFIn~input_o $end
$var wire 1 K data11~input_o $end
$var wire 1 L data10~input_o $end
$var wire 1 M data9~input_o $end
$var wire 1 N data8~input_o $end
$var wire 1 O data7~input_o $end
$var wire 1 P data6~input_o $end
$var wire 1 Q data5~input_o $end
$var wire 1 R data4~input_o $end
$var wire 1 S data3~input_o $end
$var wire 1 T data2~input_o $end
$var wire 1 U data1~input_o $end
$var wire 1 V Data0~input_o $end
$var wire 1 W b1~input_o $end
$var wire 1 X CarryFinal~output_o $end
$var wire 1 Y ou0~output_o $end
$var wire 1 Z ou1~output_o $end
$var wire 1 [ ou2~output_o $end
$var wire 1 \ ou3~output_o $end
$var wire 1 ] ou4~output_o $end
$var wire 1 ^ ou5~output_o $end
$var wire 1 _ ou6~output_o $end
$var wire 1 ` ou7~output_o $end
$var wire 1 a ou8~output_o $end
$var wire 1 b ou9~output_o $end
$var wire 1 c ou10~output_o $end
$var wire 1 d ou11~output_o $end
$var wire 1 e b2~input_o $end
$upscope $end
$upscope $end
$enddefinitions $end
#0
$dumpvars
1!
1"
0#
0$
0%
1&
1'
0(
0)
0*
0+
0,
0-
0.
0/
00
01
02
03
04
05
06
07
08
09
0:
0;
0<
0=
0>
0?
x@
0A
1B
xC
1D
1E
1F
1G
1H
0I
0J
0K
0L
0M
0N
0O
0P
0Q
0R
0S
0T
1U
1V
0W
0X
0Y
0Z
0[
0\
0]
0^
0_
0`
0a
0b
0c
0d
0e
$end
#5000
1%
1I
0@
#10000
12
0%
1J
0I
1@
#15000
1%
1I
0@
#20000
0%
0I
1@
#25000
1%
1I
0@
#30000
0%
0I
1@
#35000
1%
1I
0@
#40000
0%
0I
1@
#45000
1%
1I
0@
#50000
0%
0I
1@
#55000
1%
1I
0@
#60000
0%
0I
1@
#65000
1%
1I
0@
#70000
0%
0I
1@
#75000
1%
1I
0@
#80000
0%
0I
1@
#85000
1%
1I
0@
#90000
0%
0I
1@
#95000
1%
1I
0@
#100000
0%
0I
1@
#105000
1%
1I
0@
#110000
0%
0I
1@
#115000
1%
1I
0@
#120000
0%
0I
1@
#125000
1%
1I
0@
#130000
0%
0I
1@
#135000
1%
1I
0@
#140000
0%
0I
1@
#145000
1%
1I
0@
#150000
0%
0I
1@
#155000
1%
1I
0@
#160000
0%
0I
1@
#165000
1%
1I
0@
#170000
0%
0I
1@
#175000
1%
1I
0@
#180000
0%
0I
1@
#185000
1%
1I
0@
#190000
0%
0I
1@
#195000
1%
1I
0@
#200000
0%
0I
1@
#205000
1%
1I
0@
#210000
0%
0I
1@
#215000
1%
1I
0@
#220000
0%
0I
1@
#225000
1%
1I
0@
#230000
0%
0I
1@
#235000
1%
1I
0@
#240000
0%
0I
1@
#245000
1%
1I
0@
#250000
0%
0I
1@
#255000
1%
1I
0@
#260000
0%
0I
1@
#265000
1%
1I
0@
#270000
0%
0I
1@
#275000
1%
1I
0@
#280000
0%
0I
1@
#285000
1%
1I
0@
#290000
0%
0I
1@
#295000
1%
1I
0@
#300000
0%
0I
1@
#305000
1%
1I
0@
#310000
0%
0I
1@
#315000
1%
1I
0@
#320000
0%
0I
1@
#325000
1%
1I
0@
#330000
0%
0I
1@
#335000
1%
1I
0@
#340000
0%
0I
1@
#345000
1%
1I
0@
#350000
0%
0I
1@
#355000
1%
1I
0@
#360000
0%
0I
1@
#365000
1%
1I
0@
#370000
0%
0I
1@
#375000
1%
1I
0@
#380000
0%
0I
1@
#385000
1%
1I
0@
#390000
0%
0I
1@
#395000
1%
1I
0@
#400000
0%
0I
1@
#405000
1%
1I
0@
#410000
0%
0I
1@
#415000
1%
1I
0@
#420000
0%
0I
1@
#425000
1%
1I
0@
#430000
0%
0I
1@
#435000
1%
1I
0@
#440000
0%
0I
1@
#445000
1%
1I
0@
#450000
0%
0I
1@
#455000
1%
1I
0@
#460000
0%
0I
1@
#465000
1%
1I
0@
#470000
0%
0I
1@
#475000
1%
1I
0@
#480000
0%
0I
1@
#485000
1%
1I
0@
#490000
0%
0I
1@
#495000
1%
1I
0@
#500000
0%
0I
1@
#505000
1%
1I
0@
#510000
0%
0I
1@
#515000
1%
1I
0@
#520000
0%
0I
1@
#525000
1%
1I
0@
#530000
0%
0I
1@
#535000
1%
1I
0@
#540000
0%
0I
1@
#545000
1%
1I
0@
#550000
0%
0I
1@
#555000
1%
1I
0@
#560000
0%
0I
1@
#565000
1%
1I
0@
#570000
0%
0I
1@
#575000
1%
1I
0@
#580000
0%
0I
1@
#585000
1%
1I
0@
#590000
0%
0I
1@
#595000
1%
1I
0@
#600000
0%
0I
1@
#605000
1%
1I
0@
#610000
0%
0I
1@
#615000
1%
1I
0@
#620000
0%
0I
1@
#625000
1%
1I
0@
#630000
0%
0I
1@
#635000
1%
1I
0@
#640000
0%
0I
1@
#645000
1%
1I
0@
#650000
0%
0I
1@
#655000
1%
1I
0@
#660000
0%
0I
1@
#665000
1%
1I
0@
#670000
0%
0I
1@
#675000
1%
1I
0@
#680000
0%
0I
1@
#685000
1%
1I
0@
#690000
0%
0I
1@
#695000
1%
1I
0@
#700000
0%
0I
1@
#705000
1%
1I
0@
#710000
0%
0I
1@
#715000
1%
1I
0@
#720000
0%
0I
1@
#725000
1%
1I
0@
#730000
0%
0I
1@
#735000
1%
1I
0@
#740000
0%
0I
1@
#745000
1%
1I
0@
#750000
0%
0I
1@
#755000
1%
1I
0@
#760000
0%
0I
1@
#765000
1%
1I
0@
#770000
0%
0I
1@
#775000
1%
1I
0@
#780000
0%
0I
1@
#785000
1%
1I
0@
#790000
0%
0I
1@
#795000
1%
1I
0@
#800000
0%
0I
1@
#805000
1%
1I
0@
#810000
0%
0I
1@
#815000
1%
1I
0@
#820000
0%
0I
1@
#825000
1%
1I
0@
#830000
0%
0I
1@
#835000
1%
1I
0@
#840000
0%
0I
1@
#845000
1%
1I
0@
#850000
0%
0I
1@
#855000
1%
1I
0@
#860000
0%
0I
1@
#865000
1%
1I
0@
#870000
0%
0I
1@
#875000
1%
1I
0@
#880000
0%
0I
1@
#885000
1%
1I
0@
#890000
0%
0I
1@
#895000
1%
1I
0@
#900000
0%
0I
1@
#905000
1%
1I
0@
#910000
0%
0I
1@
#915000
1%
1I
0@
#920000
0%
0I
1@
#925000
1%
1I
0@
#930000
0%
0I
1@
#935000
1%
1I
0@
#940000
0%
0I
1@
#945000
1%
1I
0@
#950000
0%
0I
1@
#955000
1%
1I
0@
#960000
0%
0I
1@
#965000
1%
1I
0@
#970000
0%
0I
1@
#975000
1%
1I
0@
#980000
0%
0I
1@
#985000
1%
1I
0@
#990000
0%
0I
1@
#995000
1%
1I
0@
