simulation/qsim/IDL_Integrador.msim.vcd
$comment
	File created using the following command:
		vcd file IDL_Integrador.msim.vcd -direction
$end
$date
	Sun Jul 27 21:30:09 2025
$end
$version
	ModelSim Version 10.1d
$end
$timescale
	1ps
$end
$scope module Incrementador_vlg_vec_tst $end
$var reg 1 ! ActivarConteo $end
$var reg 1 " b0 $end
$var reg 1 # b1 $end
$var reg 1 $ b2 $end
$var reg 1 % ClockIn $end
$var reg 1 & Data0 $end
$var reg 1 ' data1 $end
$var reg 1 ( data2 $end
$var reg 1 ) data3 $end
$var reg 1 * data4 $end
$var reg 1 + data5 $end
$var reg 1 , data6 $end
$var reg 1 - data7 $end
$var reg 1 . data8 $end
$var reg 1 / data9 $end
$var reg 1 0 data10 $end
$var reg 1 1 data11 $end
$var reg 1 2 ResetFFIn $end
$var wire 1 3 CarryFinal $end
$var wire 1 4 enableWrite $end
$var wire 1 5 ou0 $end
$var wire 1 6 ou1 $end
$var wire 1 7 ou2 $end
$var wire 1 8 ou3 $end
$var wire 1 9 ou4 $end
$var wire 1 : ou5 $end
$var wire 1 ; ou6 $end
$var wire 1 < ou7 $end
$var wire 1 = ou8 $end
$var wire 1 > ou9 $end
$var wire 1 ? ou10 $end
$var wire 1 @ ou11 $end
$var wire 1 A selectSel $end
$var wire 1 B sampler $end
$scope module i1 $end
$var wire 1 C gnd $end
$var wire 1 D vcc $end
$var wire 1 E unknown $end
$var tri1 1 F devclrn $end
$var tri1 1 G devpor $end
$var tri1 1 H devoe $end
$var wire 1 I b1~input_o $end
$var wire 1 J CarryFinal~output_o $end
$var wire 1 K ou0~output_o $end
$var wire 1 L ou1~output_o $end
$var wire 1 M ou2~output_o $end
$var wire 1 N ou3~output_o $end
$var wire 1 O ou4~output_o $end
$var wire 1 P ou5~output_o $end
$var wire 1 Q ou6~output_o $end
$var wire 1 R ou7~output_o $end
$var wire 1 S ou8~output_o $end
$var wire 1 T ou9~output_o $end
$var wire 1 U ou10~output_o $end
$var wire 1 V ou11~output_o $end
$var wire 1 W enableWrite~output_o $end
$var wire 1 X selectSel~output_o $end
$var wire 1 Y ClockIn~input_o $end
$var wire 1 Z ClockIn~inputclkctrl_outclk $end
$var wire 1 [ inst2|inst2~0_combout $end
$var wire 1 \ ResetFFIn~input_o $end
$var wire 1 ] ResetFFIn~inputclkctrl_outclk $end
$var wire 1 ^ inst2|inst6~q $end
$var wire 1 _ ActivarConteo~input_o $end
$var wire 1 ` inst2|inst1~combout $end
$var wire 1 a inst2|inst7~q $end
$var wire 1 b data10~input_o $end
$var wire 1 c data9~input_o $end
$var wire 1 d inst2|inst8~combout $end
$var wire 1 e data8~input_o $end
$var wire 1 f data7~input_o $end
$var wire 1 g data6~input_o $end
$var wire 1 h data4~input_o $end
$var wire 1 i b2~input_o $end
$var wire 1 j b0~input_o $end
$var wire 1 k Data0~input_o $end
$var wire 1 l inst3|LPM_MUX_component|auto_generated|result_node[0]~16_combout $end
$var wire 1 m inst2|inst9~0_combout $end
$var wire 1 n inst1|inst12~q $end
$var wire 1 o inst|inst|inst~combout $end
$var wire 1 p data1~input_o $end
$var wire 1 q inst3|LPM_MUX_component|auto_generated|result_node[1]~15_combout $end
$var wire 1 r inst1|inst13~q $end
$var wire 1 s inst|inst2|inst3|inst10~combout $end
$var wire 1 t data2~input_o $end
$var wire 1 u inst3|LPM_MUX_component|auto_generated|result_node[2]~23_combout $end
$var wire 1 v inst1|inst11~q $end
$var wire 1 w inst|inst2|inst5~0_combout $end
$var wire 1 x data3~input_o $end
$var wire 1 y inst3|LPM_MUX_component|auto_generated|result_node[3]~18_combout $end
$var wire 1 z inst1|inst10~q $end
$var wire 1 { inst3|LPM_MUX_component|auto_generated|result_node[4]~19_combout $end
$var wire 1 | inst3|LPM_MUX_component|auto_generated|result_node[4]~25_combout $end
$var wire 1 } inst1|inst9~q $end
$var wire 1 ~ data5~input_o $end
$var wire 1 !! inst|inst5|inst3|inst10~combout $end
$var wire 1 "! inst3|LPM_MUX_component|auto_generated|result_node[5]~26_combout $end
$var wire 1 #! inst1|inst8~q $end
$var wire 1 $! inst|inst5|inst3|inst~combout $end
$var wire 1 %! inst3|LPM_MUX_component|auto_generated|result_node[6]~14_combout $end
$var wire 1 &! inst1|inst7~q $end
$var wire 1 '! inst3|LPM_MUX_component|auto_generated|result_node[7]~17_combout $end
$var wire 1 (! inst3|LPM_MUX_component|auto_generated|result_node[7]~24_combout $end
$var wire 1 )! inst1|inst6~q $end
$var wire 1 *! inst|inst8|inst3|inst10~combout $end
$var wire 1 +! inst3|LPM_MUX_component|auto_generated|result_node[8]~22_combout $end
$var wire 1 ,! inst1|inst5~q $end
$var wire 1 -! inst|inst8|inst3|inst~0_combout $end
$var wire 1 .! inst|inst8|inst3|inst~combout $end
$var wire 1 /! inst3|LPM_MUX_component|auto_generated|result_node[9]~20_combout $end
$var wire 1 0! inst1|inst4~q $end
$var wire 1 1! inst3|LPM_MUX_component|auto_generated|result_node[10]~21_combout $end
$var wire 1 2! inst3|LPM_MUX_component|auto_generated|result_node[10]~27_combout $end
$var wire 1 3! inst1|inst3~q $end
$var wire 1 4! data11~input_o $end
$var wire 1 5! inst|inst11|inst3|inst10~combout $end
$var wire 1 6! inst3|LPM_MUX_component|auto_generated|result_node[11]~28_combout $end
$var wire 1 7! inst1|inst~q $end
$var wire 1 8! inst|inst11|inst3|inst~combout $end
$var wire 1 9! inst|inst|inst10~combout $end
$upscope $end
$upscope $end
$enddefinitions $end
#0
$dumpvars
1!
1"
0#
0$
0%
0&
0'
0(
0)
0*
0+
0,
0-
0.
0/
00
01
02
03
04
15
06
07
08
09
0:
0;
0<
0=
0>
0?
0@
0A
xB
0C
1D
xE
1F
1G
1H
0I
0J
1K
0L
0M
0N
0O
0P
0Q
0R
0S
0T
0U
0V
0W
0X
0Y
0Z
0[
0\
0]
0^
1_
1`
0a
0b
0c
0d
0e
0f
0g
0h
0i
1j
0k
0l
0m
0n
0o
0p
0q
0r
0s
0t
0u
0v
0w
0x
0y
0z
0{
0|
0}
0~
0!!
0"!
0#!
0$!
0%!
0&!
0'!
0(!
0)!
0*!
0+!
0,!
0-!
0.!
0/!
00!
01!
02!
03!
04!
05!
06!
07!
08!
19!
$end
#5000
1%
1Y
1Z
0B
#10000
0%
0Y
0Z
1B
#15000
1%
1Y
1Z
0B
#20000
12
0%
1\
0Y
1]
0Z
1B
#25000
1%
1Y
1Z
0B
1a
0`
1[
1m
1W
14
#30000
0%
0Y
0Z
1B
#35000
1%
1Y
1Z
0B
0a
1^
1d
1q
1l
1X
1A
#40000
0%
0Y
0Z
1B
#45000
1%
1Y
1Z
0B
1r
1n
0q
1o
0l
1s
09!
1q
1u
1M
0K
17
05
#50000
0%
0Y
0Z
1B
#55000
1%
1Y
1Z
0B
1v
0n
1w
0o
1l
0s
19!
1y
0q
0u
0M
1K
07
15
#60000
0%
0Y
0Z
1B
#65000
1%
1Y
1Z
0B
1z
0v
0r
1n
1{
0y
0w
1q
1o
0l
09!
1|
0{
1y
0q
0K
05
1s
0|
1u
1M
17
#70000
0%
0Y
0Z
1B
#75000
1%
1Y
1Z
0B
1v
0n
1w
0o
1l
0s
19!
1{
0y
0w
1q
0u
0M
1K
07
15
1s
1|
0{
1y
1u
1M
17
0|
#80000
0%
0Y
0Z
1B
#85000
1%
1Y
1Z
0B
1r
1n
1w
0q
1o
0l
0s
09!
1{
0y
1q
0u
0M
0K
07
05
1|
#90000
0%
0Y
0Z
1B
#95000
1%
1Y
1Z
0B
1}
0z
0v
0n
1y
0w
0o
1l
1s
19!
0y
0q
1u
1M
1K
17
15
#100000
0%
0Y
0Z
1B
#105000
1%
1Y
1Z
0B
1v
0r
1n
1q
1o
0l
09!
1w
0q
0K
05
0s
1y
0u
0M
07
#110000
0%
0Y
0Z
1B
#115000
1%
1Y
1Z
0B
1z
0v
0n
1!!
0{
0y
0w
0o
1l
1s
19!
1"!
0|
0!!
1{
1y
1q
1u
1M
1K
17
15
0s
0"!
1|
0u
0M
07
#120000
0%
0Y
0Z
1B
#125000
1%
1Y
1Z
0B
1r
1n
0q
1o
0l
1s
09!
1q
1u
1M
0K
17
05
#130000
0%
0Y
0Z
1B
#135000
1%
1Y
1Z
0B
1v
0n
1w
0o
1l
0s
19!
1!!
0{
0y
0q
0u
0M
1K
07
15
1"!
0|
#140000
0%
0Y
0Z
1B
#145000
1%
1Y
1Z
0B
1#!
0}
0z
0v
0r
1n
1y
0w
1q
1o
0l
09!
0y
0q
0K
05
1s
1u
1M
17
#150000
0%
0Y
0Z
1B
#155000
1%
1Y
1Z
0B
1v
0n
1w
0o
1l
0s
19!
1y
0w
1q
0u
0M
1K
07
15
1s
0y
1u
1M
17
#160000
0%
0Y
0Z
1B
#165000
1%
1Y
1Z
0B
1r
1n
1w
0q
1o
0l
0s
09!
1y
1q
0u
0M
0K
07
05
#170000
0%
0Y
0Z
1B
#175000
1%
1Y
1Z
0B
1z
0v
0n
1{
0y
0w
0o
1l
1s
19!
1|
0{
1y
0q
1u
1M
1K
17
15
0|
#180000
0%
0Y
0Z
1B
#185000
1%
1Y
1Z
0B
1v
0r
1n
1q
1o
0l
09!
1w
0q
0K
05
0s
1{
0y
0u
0M
07
1|
#190000
0%
0Y
0Z
1B
#195000
1%
1Y
1Z
0B
1}
0z
0v
0n
1y
0w
0o
1l
1s
19!
0y
1q
1u
1M
1K
17
15
0s
0u
0M
07
#200000
0%
0Y
0Z
1B
#205000
1%
1Y
1Z
0B
1r
1n
0q
1o
0l
1s
09!
1q
1u
1M
0K
17
05
#210000
0%
0Y
0Z
1B
#215000
1%
1Y
1Z
0B
1v
0n
1w
0o
1l
0s
19!
1y
0q
0u
0M
1K
07
15
#220000
0%
0Y
0Z
1B
#225000
1%
1Y
1Z
0B
1z
0v
0r
1n
1$!
0!!
0{
0y
0w
1q
1o
0l
09!
1%!
0"!
0|
0$!
1!!
1{
1y
0q
0K
05
1s
0%!
1"!
1|
1u
1M
17
#230000
0%
0Y
0Z
1B
#235000
1%
1Y
1Z
0B
1v
0n
1w
0o
1l
0s
19!
1$!
0!!
0{
0y
0w
1q
0u
0M
1K
07
15
1s
1%!
0"!
0|
0$!
1!!
1{
1y
1u
1M
17
0%!
1"!
1|
#240000
0%
0Y
0Z
1B
#245000
1%
1Y
1Z
0B
1r
1n
1w
0q
1o
0l
0s
09!
1$!
0!!
0{
0y
1q
0u
0M
0K
07
05
1%!
0"!
0|
#250000
0%
0Y
0Z
1B
#255000
1%
1Y
1Z
0B
1&!
0#!
0}
0z
0v
0n
1'!
0%!
0$!
1y
0w
0o
1l
1s
19!
1(!
0'!
1%!
0y
0q
1u
1M
1K
17
15
0(!
#260000
0%
0Y
0Z
1B
#265000
1%
1Y
1Z
0B
1v
0r
1n
1q
1o
0l
09!
1w
0q
0K
05
0s
1y
0u
0M
07
#270000
0%
0Y
0Z
1B
#275000
1%
1Y
1Z
0B
1z
0v
0n
1{
0y
0w
0o
1l
1s
19!
1|
0{
1y
1q
1u
1M
1K
17
15
0s
0|
0u
0M
07
#280000
0%
0Y
0Z
1B
#285000
1%
1Y
1Z
0B
1r
1n
0q
1o
0l
1s
09!
1q
1u
1M
0K
17
05
#290000
0%
0Y
0Z
1B
#295000
1%
1Y
1Z
0B
1v
0n
1w
0o
1l
0s
19!
1{
0y
0q
0u
0M
1K
07
15
1|
#300000
0%
0Y
0Z
1B
#305000
1%
1Y
1Z
0B
1}
0z
0v
0r
1n
1y
0w
1q
1o
0l
09!
0y
0q
0K
05
1s
1u
1M
17
#310000
0%
0Y
0Z
1B
#315000
1%
1Y
1Z
0B
1v
0n
1w
0o
1l
0s
19!
1y
0w
1q
0u
0M
1K
07
15
1s
0y
1u
1M
17
#320000
0%
0Y
0Z
1B
#325000
1%
1Y
1Z
0B
1r
1n
1w
0q
1o
0l
0s
09!
1y
1q
0u
0M
0K
07
05
#330000
0%
0Y
0Z
1B
#335000
1%
1Y
1Z
0B
1z
0v
0n
1!!
0{
0y
0w
0o
1l
1s
19!
1"!
0|
0!!
1{
1y
0q
1u
1M
1K
17
15
0"!
1|
#340000
0%
0Y
0Z
1B
#345000
1%
1Y
1Z
0B
1v
0r
1n
1q
1o
0l
09!
1w
0q
0K
05
0s
1!!
0{
0y
0u
0M
07
1"!
0|
#350000
0%
0Y
0Z
1B
#355000
1%
1Y
1Z
0B
1#!
0}
0z
0v
0n
1y
0w
0o
1l
1s
19!
0y
1q
1u
1M
1K
17
15
0s
0u
0M
07
#360000
0%
0Y
0Z
1B
#365000
1%
1Y
1Z
0B
1r
1n
0q
1o
0l
1s
09!
1q
1u
1M
0K
17
05
#370000
0%
0Y
0Z
1B
#375000
1%
1Y
1Z
0B
1v
0n
1w
0o
1l
0s
19!
1y
0q
0u
0M
1K
07
15
#380000
0%
0Y
0Z
1B
#385000
1%
1Y
1Z
0B
1z
0v
0r
1n
1{
0y
0w
1q
1o
0l
09!
1|
0{
1y
0q
0K
05
1s
0|
1u
1M
17
#390000
0%
0Y
0Z
1B
#395000
1%
1Y
1Z
0B
1v
0n
1w
0o
1l
0s
19!
1{
0y
0w
1q
0u
0M
1K
07
15
1s
1|
0{
1y
1u
1M
17
0|
#400000
0%
0Y
0Z
1B
#405000
1%
1Y
1Z
0B
1r
1n
1w
0q
1o
0l
0s
09!
1{
0y
1q
0u
0M
0K
07
05
1|
#410000
0%
0Y
0Z
1B
#415000
1%
1Y
1Z
0B
1}
0z
0v
0n
1y
0w
0o
1l
1s
19!
0y
0q
1u
1M
1K
17
15
#420000
0%
0Y
0Z
1B
#425000
1%
1Y
1Z
0B
1v
0r
1n
1q
1o
0l
09!
1w
0q
0K
05
0s
1y
0u
0M
07
#430000
0%
0Y
0Z
1B
#435000
1%
1Y
1Z
0B
1z
0v
0n
1$!
0!!
0{
0y
0w
0o
1l
1s
19!
1'!
0%!
0"!
0|
0$!
1!!
1{
1y
1q
1u
1M
1K
17
15
0s
1(!
0'!
1%!
1"!
1|
0u
0M
07
0(!
#440000
0%
0Y
0Z
1B
#445000
1%
1Y
1Z
0B
1r
1n
0q
1o
0l
1s
09!
1q
1u
1M
0K
17
05
#450000
0%
0Y
0Z
1B
#455000
1%
1Y
1Z
0B
1v
0n
1w
0o
1l
0s
19!
1$!
0!!
0{
0y
0q
0u
0M
1K
07
15
1'!
0%!
0"!
0|
1(!
#460000
0%
0Y
0Z
1B
#465000
1%
1Y
1Z
0B
1)!
0&!
0#!
0}
0z
0v
0r
1n
1%!
0$!
1y
0w
1q
1o
0l
09!
0%!
0y
0q
0K
05
1s
1u
1M
17
#470000
0%
0Y
0Z
1B
#475000
1%
1Y
1Z
0B
1v
0n
1w
0o
1l
0s
19!
1y
0w
1q
0u
0M
1K
07
15
1s
0y
1u
1M
17
#480000
0%
0Y
0Z
1B
#485000
1%
1Y
1Z
0B
1r
1n
1w
0q
1o
0l
0s
09!
1y
1q
0u
0M
0K
07
05
#490000
0%
0Y
0Z
1B
#495000
1%
1Y
1Z
0B
1z
0v
0n
1{
0y
0w
0o
1l
1s
19!
1|
0{
1y
0q
1u
1M
1K
17
15
0|
#500000
0%
0Y
0Z
1B
#505000
1%
1Y
1Z
0B
1v
0r
1n
1q
1o
0l
09!
1w
0q
0K
05
0s
1{
0y
0u
0M
07
1|
#510000
0%
0Y
0Z
1B
#515000
1%
1Y
1Z
0B
1}
0z
0v
0n
1y
0w
0o
1l
1s
19!
0y
1q
1u
1M
1K
17
15
0s
0u
0M
07
#520000
0%
0Y
0Z
1B
#525000
1%
1Y
1Z
0B
1r
1n
0q
1o
0l
1s
09!
1q
1u
1M
0K
17
05
#530000
0%
0Y
0Z
1B
#535000
1%
1Y
1Z
0B
1v
0n
1w
0o
1l
0s
19!
1y
0q
0u
0M
1K
07
15
#540000
0%
0Y
0Z
1B
#545000
1%
1Y
1Z
0B
1z
0v
0r
1n
1!!
0{
0y
0w
1q
1o
0l
09!
1"!
0|
0!!
1{
1y
0q
0K
05
1s
0"!
1|
1u
1M
17
#550000
0%
0Y
0Z
1B
#555000
1%
1Y
1Z
0B
1v
0n
1w
0o
1l
0s
19!
1!!
0{
0y
0w
1q
0u
0M
1K
07
15
1s
1"!
0|
0!!
1{
1y
1u
1M
17
0"!
1|
#560000
0%
0Y
0Z
1B
#565000
1%
1Y
1Z
0B
1r
1n
1w
0q
1o
0l
0s
09!
1!!
0{
0y
1q
0u
0M
0K
07
05
1"!
0|
#570000
0%
0Y
0Z
1B
#575000
1%
1Y
1Z
0B
1#!
0}
0z
0v
0n
1y
0w
0o
1l
1s
19!
0y
0q
1u
1M
1K
17
15
#580000
0%
0Y
0Z
1B
#585000
1%
1Y
1Z
0B
1v
0r
1n
1q
1o
0l
09!
1w
0q
0K
05
0s
1y
0u
0M
07
#590000
0%
0Y
0Z
1B
#595000
1%
1Y
1Z
0B
1z
0v
0n
1{
0y
0w
0o
1l
1s
19!
1|
0{
1y
1q
1u
1M
1K
17
15
0s
0|
0u
0M
07
#600000
0%
0Y
0Z
1B
#605000
1%
1Y
1Z
0B
1r
1n
0q
1o
0l
1s
09!
1q
1u
1M
0K
17
05
#610000
0%
0Y
0Z
1B
#615000
1%
1Y
1Z
0B
1v
0n
1w
0o
1l
0s
19!
1{
0y
0q
0u
0M
1K
07
15
1|
#620000
0%
0Y
0Z
1B
#625000
1%
1Y
1Z
0B
1}
0z
0v
0r
1n
1y
0w
1q
1o
0l
09!
0y
0q
0K
05
1s
1u
1M
17
#630000
0%
0Y
0Z
1B
#635000
1%
1Y
1Z
0B
1v
0n
1w
0o
1l
0s
19!
1y
0w
1q
0u
0M
1K
07
15
1s
0y
1u
1M
17
#640000
0%
0Y
0Z
1B
#645000
1%
1Y
1Z
0B
1r
1n
1w
0q
1o
0l
0s
09!
1y
1q
0u
0M
0K
07
05
#650000
0%
0Y
0Z
1B
#655000
1%
1Y
1Z
0B
1z
0v
0n
1-!
1$!
0!!
0{
0y
0w
0o
1l
1s
19!
1%!
0"!
0|
0$!
1!!
1{
1y
0q
1u
1M
1K
17
15
0%!
1"!
1|
#660000
0%
0Y
0Z
1B
#665000
1%
1Y
1Z
0B
1v
0r
1n
1q
1o
0l
09!
1w
0q
0K
05
0s
1$!
0!!
0{
0y
0u
0M
07
1%!
0"!
0|
#670000
0%
0Y
0Z
1B
#675000
1%
1Y
1Z
0B
1&!
0#!
0}
0z
0v
0n
1*!
0'!
0%!
0-!
0$!
1y
0w
0o
1l
1s
19!
1+!
0(!
0*!
1'!
1%!
0y
1q
1u
1M
1K
17
15
0s
0+!
1(!
0u
0M
07
#680000
0%
0Y
0Z
1B
#685000
1%
1Y
1Z
0B
1r
1n
0q
1o
0l
1s
09!
1q
1u
1M
0K
17
05
#690000
0%
0Y
0Z
1B
#695000
1%
1Y
1Z
0B
1v
0n
1w
0o
1l
0s
19!
1y
0q
0u
0M
1K
07
15
#700000
0%
0Y
0Z
1B
#705000
1%
1Y
1Z
0B
1z
0v
0r
1n
1{
0y
0w
1q
1o
0l
09!
1|
0{
1y
0q
0K
05
1s
0|
1u
1M
17
#710000
0%
0Y
0Z
1B
#715000
1%
1Y
1Z
0B
1v
0n
1w
0o
1l
0s
19!
1{
0y
0w
1q
0u
0M
1K
07
15
1s
1|
0{
1y
1u
1M
17
0|
#720000
0%
0Y
0Z
1B
#725000
1%
1Y
1Z
0B
1r
1n
1w
0q
1o
0l
0s
09!
1{
0y
1q
0u
0M
0K
07
05
1|
#730000
0%
0Y
0Z
1B
#735000
1%
1Y
1Z
0B
1}
0z
0v
0n
1y
0w
0o
1l
1s
19!
0y
0q
1u
1M
1K
17
15
#740000
0%
0Y
0Z
1B
#745000
1%
1Y
1Z
0B
1v
0r
1n
1q
1o
0l
09!
1w
0q
0K
05
0s
1y
0u
0M
07
#750000
0%
0Y
0Z
1B
#755000
1%
1Y
1Z
0B
1z
0v
0n
1!!
0{
0y
0w
0o
1l
1s
19!
1"!
0|
0!!
1{
1y
1q
1u
1M
1K
17
15
0s
0"!
1|
0u
0M
07
#760000
0%
0Y
0Z
1B
#765000
1%
1Y
1Z
0B
1r
1n
0q
1o
0l
1s
09!
1q
1u
1M
0K
17
05
#770000
0%
0Y
0Z
1B
#775000
1%
1Y
1Z
0B
1v
0n
1w
0o
1l
0s
19!
1!!
0{
0y
0q
0u
0M
1K
07
15
1"!
0|
#780000
0%
0Y
0Z
1B
#785000
1%
1Y
1Z
0B
1#!
0}
0z
0v
0r
1n
1y
0w
1q
1o
0l
09!
0y
0q
0K
05
1s
1u
1M
17
#790000
0%
0Y
0Z
1B
#795000
1%
1Y
1Z
0B
1v
0n
1w
0o
1l
0s
19!
1y
0w
1q
0u
0M
1K
07
15
1s
0y
1u
1M
17
#800000
0%
0Y
0Z
1B
#805000
1%
1Y
1Z
0B
1r
1n
1w
0q
1o
0l
0s
09!
1y
1q
0u
0M
0K
07
05
#810000
0%
0Y
0Z
1B
#815000
1%
1Y
1Z
0B
1z
0v
0n
1{
0y
0w
0o
1l
1s
19!
1|
0{
1y
0q
1u
1M
1K
17
15
0|
#820000
0%
0Y
0Z
1B
#825000
1%
1Y
1Z
0B
1v
0r
1n
1q
1o
0l
09!
1w
0q
0K
05
0s
1{
0y
0u
0M
07
1|
#830000
0%
0Y
0Z
1B
#835000
1%
1Y
1Z
0B
1}
0z
0v
0n
1y
0w
0o
1l
1s
19!
0y
1q
1u
1M
1K
17
15
0s
0u
0M
07
#840000
0%
0Y
0Z
1B
#845000
1%
1Y
1Z
0B
1r
1n
0q
1o
0l
1s
09!
1q
1u
1M
0K
17
05
#850000
0%
0Y
0Z
1B
#855000
1%
1Y
1Z
0B
1v
0n
1w
0o
1l
0s
19!
1y
0q
0u
0M
1K
07
15
#860000
0%
0Y
0Z
1B
#865000
1%
1Y
1Z
0B
1z
0v
0r
1n
1-!
1$!
0!!
0{
0y
0w
1q
1o
0l
09!
1*!
0'!
0%!
0"!
0|
0$!
1!!
1{
1y
0q
0K
05
1s
1+!
0(!
0*!
1'!
1%!
1"!
1|
1u
1M
17
0+!
1(!
#870000
0%
0Y
0Z
1B
#875000
1%
1Y
1Z
0B
1v
0n
1w
0o
1l
0s
19!
1$!
0!!
0{
0y
0w
1q
0u
0M
1K
07
15
1s
1*!
0'!
0%!
0"!
0|
0$!
1!!
1{
1y
1u
1M
17
1+!
0(!
0*!
1'!
1%!
1"!
1|
0+!
1(!
#880000
0%
0Y
0Z
1B
#885000
1%
1Y
1Z
0B
1r
1n
1w
0q
1o
0l
0s
09!
1$!
0!!
0{
0y
1q
0u
0M
0K
07
05
1*!
0'!
0%!
0"!
0|
1+!
0(!
#890000
0%
0Y
0Z
1B
#895000
1%
1Y
1Z
0B
1,!
0)!
0&!
0#!
0}
0z
0v
0n
0-!
1%!
0$!
1y
0w
0o
1l
1s
19!
0%!
0y
0q
1u
1M
1K
17
15
#900000
0%
0Y
0Z
1B
#905000
1%
1Y
1Z
0B
1v
0r
1n
1q
1o
0l
09!
1w
0q
0K
05
0s
1y
0u
0M
07
#910000
0%
0Y
0Z
1B
#915000
1%
1Y
1Z
0B
1z
0v
0n
1{
0y
0w
0o
1l
1s
19!
1|
0{
1y
1q
1u
1M
1K
17
15
0s
0|
0u
0M
07
#920000
0%
0Y
0Z
1B
#925000
1%
1Y
1Z
0B
1r
1n
0q
1o
0l
1s
09!
1q
1u
1M
0K
17
05
#930000
0%
0Y
0Z
1B
#935000
1%
1Y
1Z
0B
1v
0n
1w
0o
1l
0s
19!
1{
0y
0q
0u
0M
1K
07
15
1|
#940000
0%
0Y
0Z
1B
#945000
1%
1Y
1Z
0B
1}
0z
0v
0r
1n
1y
0w
1q
1o
0l
09!
0y
0q
0K
05
1s
1u
1M
17
#950000
0%
0Y
0Z
1B
#955000
1%
1Y
1Z
0B
1v
0n
1w
0o
1l
0s
19!
1y
0w
1q
0u
0M
1K
07
15
1s
0y
1u
1M
17
#960000
0%
0Y
0Z
1B
#965000
1%
1Y
1Z
0B
1r
1n
1w
0q
1o
0l
0s
09!
1y
1q
0u
0M
0K
07
05
#970000
0%
0Y
0Z
1B
#975000
1%
1Y
1Z
0B
1z
0v
0n
1!!
0{
0y
0w
0o
1l
1s
19!
1"!
0|
0!!
1{
1y
0q
1u
1M
1K
17
15
0"!
1|
#980000
0%
0Y
0Z
1B
#985000
1%
1Y
1Z
0B
1v
0r
1n
1q
1o
0l
09!
1w
0q
0K
05
0s
1!!
0{
0y
0u
0M
07
1"!
0|
#990000
0%
0Y
0Z
1B
#995000
1%
1Y
1Z
0B
1#!
0}
0z
0v
0n
1y
0w
0o
1l
1s
19!
0y
1q
1u
1M
1K
17
15
0s
0u
0M
07
